^D:\STUDIA\KOLOCPP\SFML TEST\INTERMEDIATE\X64\DEBUG\FUNCTIONS.OBJ|D:\STUDIA\KOLOCPP\SFML TEST\INTERMEDIATE\X64\DEBUG\GAMEPLAY.OBJ|D:\STUDIA\KOLOCPP\SFML TEST\INTERMEDIATE\X64\DEBUG\GAMESTAGE.OBJ|D:\STUDIA\KOLOCPP\SFML TEST\INTERMEDIATE\X64\DEBUG\MAIN.OBJ|D:\STUDIA\KOLOCPP\SFML TEST\INTERMEDIATE\X64\DEBUG\MENU.OBJ
C:\WINDOWS\GLOBALIZATION\SORTING\SORTDEFAULT.NLS
D:\STUDIA\KOLOCPP\SFML TEST\LIBS\SFML\LIB\FLAC.LIB
D:\STUDIA\KOLOCPP\SFML TEST\LIBS\SFML\LIB\FREETYPE.LIB
D:\STUDIA\KOLOCPP\SFML TEST\LIBS\SFML\LIB\JPEG.LIB
D:\STUDIA\KOLOCPP\SFML TEST\LIBS\SFML\LIB\OGG.LIB
D:\STUDIA\KOLOCPP\SFML TEST\LIBS\SFML\LIB\OPENAL32.LIB
D:\STUDIA\KOLOCPP\SFML TEST\LIBS\SFML\LIB\SFML-AUDIO-D.LIB
D:\STUDIA\KOLOCPP\SFML TEST\LIBS\SFML\LIB\SFML-GRAPHICS-D.LIB
D:\STUDIA\KOLOCPP\SFML TEST\LIBS\SFML\LIB\SFML-MAIN.LIB
D:\STUDIA\KOLOCPP\SFML TEST\LIBS\SFML\LIB\SFML-NETWORK-D.LIB
D:\STUDIA\KOLOCPP\SFML TEST\LIBS\SFML\LIB\SFML-SYSTEM-D.LIB
D:\STUDIA\KOLOCPP\SFML TEST\LIBS\SFML\LIB\SFML-WINDOW-D.LIB
D:\STUDIA\KOLOCPP\SFML TEST\LIBS\SFML\LIB\VORBIS.LIB
D:\STUDIA\KOLOCPP\SFML TEST\LIBS\SFML\LIB\VORBISENC.LIB
D:\STUDIA\KOLOCPP\SFML TEST\LIBS\SFML\LIB\VORBISFILE.LIB
C:\PROGRAM FILES (X86)\WINDOWS KITS\8.1\LIB\WINV6.3\UM\X64\KERNEL32.LIB
C:\PROGRAM FILES (X86)\WINDOWS KITS\8.1\LIB\WINV6.3\UM\X64\USER32.LIB
C:\PROGRAM FILES (X86)\WINDOWS KITS\8.1\LIB\WINV6.3\UM\X64\GDI32.LIB
C:\PROGRAM FILES (X86)\WINDOWS KITS\8.1\LIB\WINV6.3\UM\X64\WINSPOOL.LIB
C:\PROGRAM FILES (X86)\WINDOWS KITS\8.1\LIB\WINV6.3\UM\X64\COMDLG32.LIB
C:\PROGRAM FILES (X86)\WINDOWS KITS\8.1\LIB\WINV6.3\UM\X64\ADVAPI32.LIB
C:\PROGRAM FILES (X86)\WINDOWS KITS\8.1\LIB\WINV6.3\UM\X64\SHELL32.LIB
C:\PROGRAM FILES (X86)\WINDOWS KITS\8.1\LIB\WINV6.3\UM\X64\OLE32.LIB
C:\PROGRAM FILES (X86)\WINDOWS KITS\8.1\LIB\WINV6.3\UM\X64\OLEAUT32.LIB
C:\PROGRAM FILES (X86)\WINDOWS KITS\8.1\LIB\WINV6.3\UM\X64\UUID.LIB
C:\PROGRAM FILES (X86)\WINDOWS KITS\8.1\LIB\WINV6.3\UM\X64\ODBC32.LIB
C:\PROGRAM FILES (X86)\WINDOWS KITS\8.1\LIB\WINV6.3\UM\X64\ODBCCP32.LIB
D:\STUDIA\KOLOCPP\SFML TEST\INTERMEDIATE\X64\DEBUG\FUNCTIONS.OBJ
D:\STUDIA\KOLOCPP\SFML TEST\INTERMEDIATE\X64\DEBUG\GAMEPLAY.OBJ
D:\STUDIA\KOLOCPP\SFML TEST\INTERMEDIATE\X64\DEBUG\GAMESTAGE.OBJ
D:\STUDIA\KOLOCPP\SFML TEST\INTERMEDIATE\X64\DEBUG\MAIN.OBJ
D:\STUDIA\KOLOCPP\SFML TEST\INTERMEDIATE\X64\DEBUG\MENU.OBJ
C:\WINDOWS\SYSTEM32\TZRES.DLL
C:\PROGRAM FILES (X86)\MICROSOFT VISUAL STUDIO 14.0\VC\LIB\AMD64\MSVCPRTD.LIB
C:\PROGRAM FILES (X86)\MICROSOFT VISUAL STUDIO 14.0\VC\LIB\AMD64\MSVCRTD.LIB
C:\PROGRAM FILES (X86)\MICROSOFT VISUAL STUDIO 14.0\VC\LIB\AMD64\OLDNAMES.LIB
C:\PROGRAM FILES (X86)\MICROSOFT VISUAL STUDIO 14.0\VC\LIB\AMD64\VCRUNTIMED.LIB
C:\PROGRAM FILES (X86)\WINDOWS KITS\10\LIB\10.0.10240.0\UCRT\X64\UCRTD.LIB
