^D:\POLIBUDA\PROGRAMOWANIE\_GITLAB\KLOSLABSGAMINGCPPSFML\CPP-GAME-SFML2\SFML TEST\FUNCTIONS.CPP
D:\POLIBUDA\PROGRAMOWANIE\_GITLAB\KLOSLABSGAMINGCPPSFML\CPP-GAME-SFML2\SFML TEST\FUNCTIONS.H
D:\POLIBUDA\PROGRAMOWANIE\_GITLAB\KLOSLABSGAMINGCPPSFML\CPP-GAME-SFML2\SFML TEST\LIBSANDDECLARATIONS.H
D:\PROGRAMY\VISUAL2K15\VC\INCLUDE\IOSTREAM
D:\PROGRAMY\VISUAL2K15\VC\INCLUDE\ISTREAM
D:\PROGRAMY\VISUAL2K15\VC\INCLUDE\OSTREAM
D:\PROGRAMY\VISUAL2K15\VC\INCLUDE\IOS
D:\PROGRAMY\VISUAL2K15\VC\INCLUDE\XLOCNUM
D:\PROGRAMY\VISUAL2K15\VC\INCLUDE\CLIMITS
D:\PROGRAMY\VISUAL2K15\VC\INCLUDE\YVALS.H
D:\PROGRAMY\VISUAL2K15\VC\INCLUDE\XKEYCHECK.H
D:\PROGRAMY\VISUAL2K15\VC\INCLUDE\CRTDEFS.H
D:\PROGRAMY\VISUAL2K15\VC\INCLUDE\VCRUNTIME.H
D:\PROGRAMY\VISUAL2K15\VC\INCLUDE\SAL.H
D:\PROGRAMY\VISUAL2K15\VC\INCLUDE\CONCURRENCYSAL.H
D:\PROGRAMY\VISUAL2K15\VC\INCLUDE\VADEFS.H
C:\PROGRAM FILES (X86)\WINDOWS KITS\10\INCLUDE\10.0.10240.0\UCRT\CORECRT.H
D:\PROGRAMY\VISUAL2K15\VC\INCLUDE\USE_ANSI.H
D:\PROGRAMY\VISUAL2K15\VC\INCLUDE\LIMITS.H
D:\PROGRAMY\VISUAL2K15\VC\INCLUDE\CMATH
C:\PROGRAM FILES (X86)\WINDOWS KITS\10\INCLUDE\10.0.10240.0\UCRT\MATH.H
D:\PROGRAMY\VISUAL2K15\VC\INCLUDE\XTGMATH.H
D:\PROGRAMY\VISUAL2K15\VC\INCLUDE\XTR1COMMON
D:\PROGRAMY\VISUAL2K15\VC\INCLUDE\CSTDLIB
C:\PROGRAM FILES (X86)\WINDOWS KITS\10\INCLUDE\10.0.10240.0\UCRT\STDLIB.H
C:\PROGRAM FILES (X86)\WINDOWS KITS\10\INCLUDE\10.0.10240.0\UCRT\CORECRT_MALLOC.H
C:\PROGRAM FILES (X86)\WINDOWS KITS\10\INCLUDE\10.0.10240.0\UCRT\CORECRT_SEARCH.H
C:\PROGRAM FILES (X86)\WINDOWS KITS\10\INCLUDE\10.0.10240.0\UCRT\STDDEF.H
C:\PROGRAM FILES (X86)\WINDOWS KITS\10\INCLUDE\10.0.10240.0\UCRT\CORECRT_WSTDLIB.H
D:\PROGRAMY\VISUAL2K15\VC\INCLUDE\CSTDIO
C:\PROGRAM FILES (X86)\WINDOWS KITS\10\INCLUDE\10.0.10240.0\UCRT\STDIO.H
C:\PROGRAM FILES (X86)\WINDOWS KITS\10\INCLUDE\10.0.10240.0\UCRT\CORECRT_WSTDIO.H
C:\PROGRAM FILES (X86)\WINDOWS KITS\10\INCLUDE\10.0.10240.0\UCRT\CORECRT_STDIO_CONFIG.H
D:\PROGRAMY\VISUAL2K15\VC\INCLUDE\STREAMBUF
D:\PROGRAMY\VISUAL2K15\VC\INCLUDE\XIOSBASE
D:\PROGRAMY\VISUAL2K15\VC\INCLUDE\XLOCALE
D:\PROGRAMY\VISUAL2K15\VC\INCLUDE\CSTRING
C:\PROGRAM FILES (X86)\WINDOWS KITS\10\INCLUDE\10.0.10240.0\UCRT\STRING.H
C:\PROGRAM FILES (X86)\WINDOWS KITS\10\INCLUDE\10.0.10240.0\UCRT\CORECRT_MEMORY.H
C:\PROGRAM FILES (X86)\WINDOWS KITS\10\INCLUDE\10.0.10240.0\UCRT\CORECRT_MEMCPY_S.H
C:\PROGRAM FILES (X86)\WINDOWS KITS\10\INCLUDE\10.0.10240.0\UCRT\ERRNO.H
D:\PROGRAMY\VISUAL2K15\VC\INCLUDE\VCRUNTIME_STRING.H
C:\PROGRAM FILES (X86)\WINDOWS KITS\10\INCLUDE\10.0.10240.0\UCRT\CORECRT_WSTRING.H
D:\PROGRAMY\VISUAL2K15\VC\INCLUDE\STDEXCEPT
D:\PROGRAMY\VISUAL2K15\VC\INCLUDE\EXCEPTION
D:\PROGRAMY\VISUAL2K15\VC\INCLUDE\TYPE_TRAITS
D:\PROGRAMY\VISUAL2K15\VC\INCLUDE\XSTDDEF
D:\PROGRAMY\VISUAL2K15\VC\INCLUDE\CSTDDEF
D:\PROGRAMY\VISUAL2K15\VC\INCLUDE\INITIALIZER_LIST
C:\PROGRAM FILES (X86)\WINDOWS KITS\10\INCLUDE\10.0.10240.0\UCRT\MALLOC.H
D:\PROGRAMY\VISUAL2K15\VC\INCLUDE\VCRUNTIME_EXCEPTION.H
D:\PROGRAMY\VISUAL2K15\VC\INCLUDE\EH.H
C:\PROGRAM FILES (X86)\WINDOWS KITS\10\INCLUDE\10.0.10240.0\UCRT\CORECRT_TERMINATE.H
D:\PROGRAMY\VISUAL2K15\VC\INCLUDE\XSTRING
D:\PROGRAMY\VISUAL2K15\VC\INCLUDE\XMEMORY0
D:\PROGRAMY\VISUAL2K15\VC\INCLUDE\CSTDINT
D:\PROGRAMY\VISUAL2K15\VC\INCLUDE\STDINT.H
D:\PROGRAMY\VISUAL2K15\VC\INCLUDE\LIMITS
D:\PROGRAMY\VISUAL2K15\VC\INCLUDE\YMATH.H
D:\PROGRAMY\VISUAL2K15\VC\INCLUDE\CFLOAT
C:\PROGRAM FILES (X86)\WINDOWS KITS\10\INCLUDE\10.0.10240.0\UCRT\FLOAT.H
D:\PROGRAMY\VISUAL2K15\VC\INCLUDE\CWCHAR
C:\PROGRAM FILES (X86)\WINDOWS KITS\10\INCLUDE\10.0.10240.0\UCRT\WCHAR.H
C:\PROGRAM FILES (X86)\WINDOWS KITS\10\INCLUDE\10.0.10240.0\UCRT\CORECRT_WCONIO.H
C:\PROGRAM FILES (X86)\WINDOWS KITS\10\INCLUDE\10.0.10240.0\UCRT\CORECRT_WCTYPE.H
C:\PROGRAM FILES (X86)\WINDOWS KITS\10\INCLUDE\10.0.10240.0\UCRT\CORECRT_WDIRECT.H
C:\PROGRAM FILES (X86)\WINDOWS KITS\10\INCLUDE\10.0.10240.0\UCRT\CORECRT_WIO.H
C:\PROGRAM FILES (X86)\WINDOWS KITS\10\INCLUDE\10.0.10240.0\UCRT\CORECRT_SHARE.H
C:\PROGRAM FILES (X86)\WINDOWS KITS\10\INCLUDE\10.0.10240.0\UCRT\CORECRT_WPROCESS.H
C:\PROGRAM FILES (X86)\WINDOWS KITS\10\INCLUDE\10.0.10240.0\UCRT\CORECRT_WTIME.H
C:\PROGRAM FILES (X86)\WINDOWS KITS\10\INCLUDE\10.0.10240.0\UCRT\SYS\STAT.H
C:\PROGRAM FILES (X86)\WINDOWS KITS\10\INCLUDE\10.0.10240.0\UCRT\SYS\TYPES.H
D:\PROGRAMY\VISUAL2K15\VC\INCLUDE\NEW
D:\PROGRAMY\VISUAL2K15\VC\INCLUDE\VCRUNTIME_NEW.H
D:\PROGRAMY\VISUAL2K15\VC\INCLUDE\XUTILITY
D:\PROGRAMY\VISUAL2K15\VC\INCLUDE\UTILITY
D:\PROGRAMY\VISUAL2K15\VC\INCLUDE\IOSFWD
C:\PROGRAM FILES (X86)\WINDOWS KITS\10\INCLUDE\10.0.10240.0\UCRT\CRTDBG.H
D:\PROGRAMY\VISUAL2K15\VC\INCLUDE\VCRUNTIME_NEW_DEBUG.H
D:\PROGRAMY\VISUAL2K15\VC\INCLUDE\XATOMIC0.H
D:\PROGRAMY\VISUAL2K15\VC\INCLUDE\INTRIN.H
D:\PROGRAMY\VISUAL2K15\VC\INCLUDE\SETJMP.H
D:\PROGRAMY\VISUAL2K15\VC\INCLUDE\IMMINTRIN.H
D:\PROGRAMY\VISUAL2K15\VC\INCLUDE\WMMINTRIN.H
D:\PROGRAMY\VISUAL2K15\VC\INCLUDE\NMMINTRIN.H
D:\PROGRAMY\VISUAL2K15\VC\INCLUDE\SMMINTRIN.H
D:\PROGRAMY\VISUAL2K15\VC\INCLUDE\TMMINTRIN.H
D:\PROGRAMY\VISUAL2K15\VC\INCLUDE\PMMINTRIN.H
D:\PROGRAMY\VISUAL2K15\VC\INCLUDE\EMMINTRIN.H
D:\PROGRAMY\VISUAL2K15\VC\INCLUDE\XMMINTRIN.H
D:\PROGRAMY\VISUAL2K15\VC\INCLUDE\MMINTRIN.H
D:\PROGRAMY\VISUAL2K15\VC\INCLUDE\AMMINTRIN.H
D:\PROGRAMY\VISUAL2K15\VC\INCLUDE\TYPEINFO
D:\PROGRAMY\VISUAL2K15\VC\INCLUDE\VCRUNTIME_TYPEINFO.H
D:\PROGRAMY\VISUAL2K15\VC\INCLUDE\XLOCINFO
D:\PROGRAMY\VISUAL2K15\VC\INCLUDE\XLOCINFO.H
C:\PROGRAM FILES (X86)\WINDOWS KITS\10\INCLUDE\10.0.10240.0\UCRT\CTYPE.H
C:\PROGRAM FILES (X86)\WINDOWS KITS\10\INCLUDE\10.0.10240.0\UCRT\LOCALE.H
D:\PROGRAMY\VISUAL2K15\VC\INCLUDE\XFACET
D:\PROGRAMY\VISUAL2K15\VC\INCLUDE\SYSTEM_ERROR
D:\PROGRAMY\VISUAL2K15\VC\INCLUDE\CERRNO
C:\PROGRAM FILES (X86)\WINDOWS KITS\10\INCLUDE\10.0.10240.0\UCRT\SHARE.H
D:\PROGRAMY\VISUAL2K15\VC\INCLUDE\MEMORY
D:\PROGRAMY\VISUAL2K15\VC\INCLUDE\XMEMORY
D:\POLIBUDA\PROGRAMOWANIE\_GITLAB\KLOSLABSGAMINGCPPSFML\CPP-GAME-SFML2\LIBS\SFML\INCLUDE\SFML\GRAPHICS.HPP
D:\POLIBUDA\PROGRAMOWANIE\_GITLAB\KLOSLABSGAMINGCPPSFML\CPP-GAME-SFML2\LIBS\SFML\INCLUDE\SFML\WINDOW.HPP
D:\POLIBUDA\PROGRAMOWANIE\_GITLAB\KLOSLABSGAMINGCPPSFML\CPP-GAME-SFML2\LIBS\SFML\INCLUDE\SFML\SYSTEM.HPP
D:\POLIBUDA\PROGRAMOWANIE\_GITLAB\KLOSLABSGAMINGCPPSFML\CPP-GAME-SFML2\LIBS\SFML\INCLUDE\SFML\CONFIG.HPP
D:\POLIBUDA\PROGRAMOWANIE\_GITLAB\KLOSLABSGAMINGCPPSFML\CPP-GAME-SFML2\LIBS\SFML\INCLUDE\SFML\SYSTEM\CLOCK.HPP
D:\POLIBUDA\PROGRAMOWANIE\_GITLAB\KLOSLABSGAMINGCPPSFML\CPP-GAME-SFML2\LIBS\SFML\INCLUDE\SFML\SYSTEM\EXPORT.HPP
D:\POLIBUDA\PROGRAMOWANIE\_GITLAB\KLOSLABSGAMINGCPPSFML\CPP-GAME-SFML2\LIBS\SFML\INCLUDE\SFML\SYSTEM\TIME.HPP
D:\POLIBUDA\PROGRAMOWANIE\_GITLAB\KLOSLABSGAMINGCPPSFML\CPP-GAME-SFML2\LIBS\SFML\INCLUDE\SFML\SYSTEM\ERR.HPP
D:\POLIBUDA\PROGRAMOWANIE\_GITLAB\KLOSLABSGAMINGCPPSFML\CPP-GAME-SFML2\LIBS\SFML\INCLUDE\SFML\SYSTEM\FILEINPUTSTREAM.HPP
D:\POLIBUDA\PROGRAMOWANIE\_GITLAB\KLOSLABSGAMINGCPPSFML\CPP-GAME-SFML2\LIBS\SFML\INCLUDE\SFML\SYSTEM\INPUTSTREAM.HPP
D:\POLIBUDA\PROGRAMOWANIE\_GITLAB\KLOSLABSGAMINGCPPSFML\CPP-GAME-SFML2\LIBS\SFML\INCLUDE\SFML\SYSTEM\NONCOPYABLE.HPP
D:\PROGRAMY\VISUAL2K15\VC\INCLUDE\STRING
D:\POLIBUDA\PROGRAMOWANIE\_GITLAB\KLOSLABSGAMINGCPPSFML\CPP-GAME-SFML2\LIBS\SFML\INCLUDE\SFML\SYSTEM\LOCK.HPP
D:\POLIBUDA\PROGRAMOWANIE\_GITLAB\KLOSLABSGAMINGCPPSFML\CPP-GAME-SFML2\LIBS\SFML\INCLUDE\SFML\SYSTEM\MEMORYINPUTSTREAM.HPP
D:\POLIBUDA\PROGRAMOWANIE\_GITLAB\KLOSLABSGAMINGCPPSFML\CPP-GAME-SFML2\LIBS\SFML\INCLUDE\SFML\SYSTEM\MUTEX.HPP
D:\POLIBUDA\PROGRAMOWANIE\_GITLAB\KLOSLABSGAMINGCPPSFML\CPP-GAME-SFML2\LIBS\SFML\INCLUDE\SFML\SYSTEM\SLEEP.HPP
D:\POLIBUDA\PROGRAMOWANIE\_GITLAB\KLOSLABSGAMINGCPPSFML\CPP-GAME-SFML2\LIBS\SFML\INCLUDE\SFML\SYSTEM\STRING.HPP
D:\POLIBUDA\PROGRAMOWANIE\_GITLAB\KLOSLABSGAMINGCPPSFML\CPP-GAME-SFML2\LIBS\SFML\INCLUDE\SFML\SYSTEM\UTF.HPP
D:\PROGRAMY\VISUAL2K15\VC\INCLUDE\ALGORITHM
D:\PROGRAMY\VISUAL2K15\VC\INCLUDE\LOCALE
D:\PROGRAMY\VISUAL2K15\VC\INCLUDE\XLOCBUF
D:\PROGRAMY\VISUAL2K15\VC\INCLUDE\XLOCMES
D:\PROGRAMY\VISUAL2K15\VC\INCLUDE\XLOCMON
D:\PROGRAMY\VISUAL2K15\VC\INCLUDE\XLOCTIME
D:\PROGRAMY\VISUAL2K15\VC\INCLUDE\CTIME
C:\PROGRAM FILES (X86)\WINDOWS KITS\10\INCLUDE\10.0.10240.0\UCRT\TIME.H
D:\POLIBUDA\PROGRAMOWANIE\_GITLAB\KLOSLABSGAMINGCPPSFML\CPP-GAME-SFML2\LIBS\SFML\INCLUDE\SFML\SYSTEM\UTF.INL
D:\POLIBUDA\PROGRAMOWANIE\_GITLAB\KLOSLABSGAMINGCPPSFML\CPP-GAME-SFML2\LIBS\SFML\INCLUDE\SFML\SYSTEM\STRING.INL
D:\POLIBUDA\PROGRAMOWANIE\_GITLAB\KLOSLABSGAMINGCPPSFML\CPP-GAME-SFML2\LIBS\SFML\INCLUDE\SFML\SYSTEM\THREAD.HPP
D:\POLIBUDA\PROGRAMOWANIE\_GITLAB\KLOSLABSGAMINGCPPSFML\CPP-GAME-SFML2\LIBS\SFML\INCLUDE\SFML\SYSTEM\THREAD.INL
D:\POLIBUDA\PROGRAMOWANIE\_GITLAB\KLOSLABSGAMINGCPPSFML\CPP-GAME-SFML2\LIBS\SFML\INCLUDE\SFML\SYSTEM\THREADLOCAL.HPP
D:\POLIBUDA\PROGRAMOWANIE\_GITLAB\KLOSLABSGAMINGCPPSFML\CPP-GAME-SFML2\LIBS\SFML\INCLUDE\SFML\SYSTEM\THREADLOCALPTR.HPP
D:\POLIBUDA\PROGRAMOWANIE\_GITLAB\KLOSLABSGAMINGCPPSFML\CPP-GAME-SFML2\LIBS\SFML\INCLUDE\SFML\SYSTEM\THREADLOCALPTR.INL
D:\POLIBUDA\PROGRAMOWANIE\_GITLAB\KLOSLABSGAMINGCPPSFML\CPP-GAME-SFML2\LIBS\SFML\INCLUDE\SFML\SYSTEM\VECTOR2.HPP
D:\POLIBUDA\PROGRAMOWANIE\_GITLAB\KLOSLABSGAMINGCPPSFML\CPP-GAME-SFML2\LIBS\SFML\INCLUDE\SFML\SYSTEM\VECTOR2.INL
D:\POLIBUDA\PROGRAMOWANIE\_GITLAB\KLOSLABSGAMINGCPPSFML\CPP-GAME-SFML2\LIBS\SFML\INCLUDE\SFML\SYSTEM\VECTOR3.HPP
D:\POLIBUDA\PROGRAMOWANIE\_GITLAB\KLOSLABSGAMINGCPPSFML\CPP-GAME-SFML2\LIBS\SFML\INCLUDE\SFML\SYSTEM\VECTOR3.INL
D:\POLIBUDA\PROGRAMOWANIE\_GITLAB\KLOSLABSGAMINGCPPSFML\CPP-GAME-SFML2\LIBS\SFML\INCLUDE\SFML\WINDOW\CONTEXT.HPP
D:\POLIBUDA\PROGRAMOWANIE\_GITLAB\KLOSLABSGAMINGCPPSFML\CPP-GAME-SFML2\LIBS\SFML\INCLUDE\SFML\WINDOW\EXPORT.HPP
D:\POLIBUDA\PROGRAMOWANIE\_GITLAB\KLOSLABSGAMINGCPPSFML\CPP-GAME-SFML2\LIBS\SFML\INCLUDE\SFML\WINDOW\GLRESOURCE.HPP
D:\POLIBUDA\PROGRAMOWANIE\_GITLAB\KLOSLABSGAMINGCPPSFML\CPP-GAME-SFML2\LIBS\SFML\INCLUDE\SFML\WINDOW\CONTEXTSETTINGS.HPP
D:\POLIBUDA\PROGRAMOWANIE\_GITLAB\KLOSLABSGAMINGCPPSFML\CPP-GAME-SFML2\LIBS\SFML\INCLUDE\SFML\WINDOW\EVENT.HPP
D:\POLIBUDA\PROGRAMOWANIE\_GITLAB\KLOSLABSGAMINGCPPSFML\CPP-GAME-SFML2\LIBS\SFML\INCLUDE\SFML\WINDOW\JOYSTICK.HPP
D:\POLIBUDA\PROGRAMOWANIE\_GITLAB\KLOSLABSGAMINGCPPSFML\CPP-GAME-SFML2\LIBS\SFML\INCLUDE\SFML\WINDOW\KEYBOARD.HPP
D:\POLIBUDA\PROGRAMOWANIE\_GITLAB\KLOSLABSGAMINGCPPSFML\CPP-GAME-SFML2\LIBS\SFML\INCLUDE\SFML\WINDOW\MOUSE.HPP
D:\POLIBUDA\PROGRAMOWANIE\_GITLAB\KLOSLABSGAMINGCPPSFML\CPP-GAME-SFML2\LIBS\SFML\INCLUDE\SFML\WINDOW\SENSOR.HPP
D:\POLIBUDA\PROGRAMOWANIE\_GITLAB\KLOSLABSGAMINGCPPSFML\CPP-GAME-SFML2\LIBS\SFML\INCLUDE\SFML\WINDOW\TOUCH.HPP
D:\POLIBUDA\PROGRAMOWANIE\_GITLAB\KLOSLABSGAMINGCPPSFML\CPP-GAME-SFML2\LIBS\SFML\INCLUDE\SFML\WINDOW\VIDEOMODE.HPP
D:\PROGRAMY\VISUAL2K15\VC\INCLUDE\VECTOR
D:\POLIBUDA\PROGRAMOWANIE\_GITLAB\KLOSLABSGAMINGCPPSFML\CPP-GAME-SFML2\LIBS\SFML\INCLUDE\SFML\WINDOW\WINDOW.HPP
D:\POLIBUDA\PROGRAMOWANIE\_GITLAB\KLOSLABSGAMINGCPPSFML\CPP-GAME-SFML2\LIBS\SFML\INCLUDE\SFML\WINDOW\WINDOWHANDLE.HPP
D:\POLIBUDA\PROGRAMOWANIE\_GITLAB\KLOSLABSGAMINGCPPSFML\CPP-GAME-SFML2\LIBS\SFML\INCLUDE\SFML\WINDOW\WINDOWSTYLE.HPP
D:\POLIBUDA\PROGRAMOWANIE\_GITLAB\KLOSLABSGAMINGCPPSFML\CPP-GAME-SFML2\LIBS\SFML\INCLUDE\SFML\GRAPHICS\BLENDMODE.HPP
D:\POLIBUDA\PROGRAMOWANIE\_GITLAB\KLOSLABSGAMINGCPPSFML\CPP-GAME-SFML2\LIBS\SFML\INCLUDE\SFML\GRAPHICS\EXPORT.HPP
D:\POLIBUDA\PROGRAMOWANIE\_GITLAB\KLOSLABSGAMINGCPPSFML\CPP-GAME-SFML2\LIBS\SFML\INCLUDE\SFML\GRAPHICS\CIRCLESHAPE.HPP
D:\POLIBUDA\PROGRAMOWANIE\_GITLAB\KLOSLABSGAMINGCPPSFML\CPP-GAME-SFML2\LIBS\SFML\INCLUDE\SFML\GRAPHICS\SHAPE.HPP
D:\POLIBUDA\PROGRAMOWANIE\_GITLAB\KLOSLABSGAMINGCPPSFML\CPP-GAME-SFML2\LIBS\SFML\INCLUDE\SFML\GRAPHICS\DRAWABLE.HPP
D:\POLIBUDA\PROGRAMOWANIE\_GITLAB\KLOSLABSGAMINGCPPSFML\CPP-GAME-SFML2\LIBS\SFML\INCLUDE\SFML\GRAPHICS\RENDERSTATES.HPP
D:\POLIBUDA\PROGRAMOWANIE\_GITLAB\KLOSLABSGAMINGCPPSFML\CPP-GAME-SFML2\LIBS\SFML\INCLUDE\SFML\GRAPHICS\TRANSFORM.HPP
D:\POLIBUDA\PROGRAMOWANIE\_GITLAB\KLOSLABSGAMINGCPPSFML\CPP-GAME-SFML2\LIBS\SFML\INCLUDE\SFML\GRAPHICS\RECT.HPP
D:\POLIBUDA\PROGRAMOWANIE\_GITLAB\KLOSLABSGAMINGCPPSFML\CPP-GAME-SFML2\LIBS\SFML\INCLUDE\SFML\GRAPHICS\RECT.INL
D:\POLIBUDA\PROGRAMOWANIE\_GITLAB\KLOSLABSGAMINGCPPSFML\CPP-GAME-SFML2\LIBS\SFML\INCLUDE\SFML\GRAPHICS\TRANSFORMABLE.HPP
D:\POLIBUDA\PROGRAMOWANIE\_GITLAB\KLOSLABSGAMINGCPPSFML\CPP-GAME-SFML2\LIBS\SFML\INCLUDE\SFML\GRAPHICS\VERTEXARRAY.HPP
D:\POLIBUDA\PROGRAMOWANIE\_GITLAB\KLOSLABSGAMINGCPPSFML\CPP-GAME-SFML2\LIBS\SFML\INCLUDE\SFML\GRAPHICS\VERTEX.HPP
D:\POLIBUDA\PROGRAMOWANIE\_GITLAB\KLOSLABSGAMINGCPPSFML\CPP-GAME-SFML2\LIBS\SFML\INCLUDE\SFML\GRAPHICS\COLOR.HPP
D:\POLIBUDA\PROGRAMOWANIE\_GITLAB\KLOSLABSGAMINGCPPSFML\CPP-GAME-SFML2\LIBS\SFML\INCLUDE\SFML\GRAPHICS\PRIMITIVETYPE.HPP
D:\POLIBUDA\PROGRAMOWANIE\_GITLAB\KLOSLABSGAMINGCPPSFML\CPP-GAME-SFML2\LIBS\SFML\INCLUDE\SFML\GRAPHICS\CONVEXSHAPE.HPP
D:\POLIBUDA\PROGRAMOWANIE\_GITLAB\KLOSLABSGAMINGCPPSFML\CPP-GAME-SFML2\LIBS\SFML\INCLUDE\SFML\GRAPHICS\FONT.HPP
D:\POLIBUDA\PROGRAMOWANIE\_GITLAB\KLOSLABSGAMINGCPPSFML\CPP-GAME-SFML2\LIBS\SFML\INCLUDE\SFML\GRAPHICS\GLYPH.HPP
D:\POLIBUDA\PROGRAMOWANIE\_GITLAB\KLOSLABSGAMINGCPPSFML\CPP-GAME-SFML2\LIBS\SFML\INCLUDE\SFML\GRAPHICS\TEXTURE.HPP
D:\POLIBUDA\PROGRAMOWANIE\_GITLAB\KLOSLABSGAMINGCPPSFML\CPP-GAME-SFML2\LIBS\SFML\INCLUDE\SFML\GRAPHICS\IMAGE.HPP
D:\PROGRAMY\VISUAL2K15\VC\INCLUDE\MAP
D:\PROGRAMY\VISUAL2K15\VC\INCLUDE\TUPLE
D:\PROGRAMY\VISUAL2K15\VC\INCLUDE\XTREE
D:\POLIBUDA\PROGRAMOWANIE\_GITLAB\KLOSLABSGAMINGCPPSFML\CPP-GAME-SFML2\LIBS\SFML\INCLUDE\SFML\GRAPHICS\RECTANGLESHAPE.HPP
D:\POLIBUDA\PROGRAMOWANIE\_GITLAB\KLOSLABSGAMINGCPPSFML\CPP-GAME-SFML2\LIBS\SFML\INCLUDE\SFML\GRAPHICS\RENDERTARGET.HPP
D:\POLIBUDA\PROGRAMOWANIE\_GITLAB\KLOSLABSGAMINGCPPSFML\CPP-GAME-SFML2\LIBS\SFML\INCLUDE\SFML\GRAPHICS\VIEW.HPP
D:\POLIBUDA\PROGRAMOWANIE\_GITLAB\KLOSLABSGAMINGCPPSFML\CPP-GAME-SFML2\LIBS\SFML\INCLUDE\SFML\GRAPHICS\RENDERTEXTURE.HPP
D:\POLIBUDA\PROGRAMOWANIE\_GITLAB\KLOSLABSGAMINGCPPSFML\CPP-GAME-SFML2\LIBS\SFML\INCLUDE\SFML\GRAPHICS\RENDERWINDOW.HPP
D:\POLIBUDA\PROGRAMOWANIE\_GITLAB\KLOSLABSGAMINGCPPSFML\CPP-GAME-SFML2\LIBS\SFML\INCLUDE\SFML\GRAPHICS\SHADER.HPP
D:\POLIBUDA\PROGRAMOWANIE\_GITLAB\KLOSLABSGAMINGCPPSFML\CPP-GAME-SFML2\LIBS\SFML\INCLUDE\SFML\GRAPHICS\SPRITE.HPP
D:\POLIBUDA\PROGRAMOWANIE\_GITLAB\KLOSLABSGAMINGCPPSFML\CPP-GAME-SFML2\LIBS\SFML\INCLUDE\SFML\GRAPHICS\TEXT.HPP
D:\POLIBUDA\PROGRAMOWANIE\_GITLAB\KLOSLABSGAMINGCPPSFML\CPP-GAME-SFML2\LIBS\SFML\INCLUDE\SFML\AUDIO.HPP
D:\POLIBUDA\PROGRAMOWANIE\_GITLAB\KLOSLABSGAMINGCPPSFML\CPP-GAME-SFML2\LIBS\SFML\INCLUDE\SFML\AUDIO\INPUTSOUNDFILE.HPP
D:\POLIBUDA\PROGRAMOWANIE\_GITLAB\KLOSLABSGAMINGCPPSFML\CPP-GAME-SFML2\LIBS\SFML\INCLUDE\SFML\AUDIO\EXPORT.HPP
D:\POLIBUDA\PROGRAMOWANIE\_GITLAB\KLOSLABSGAMINGCPPSFML\CPP-GAME-SFML2\LIBS\SFML\INCLUDE\SFML\AUDIO\LISTENER.HPP
D:\POLIBUDA\PROGRAMOWANIE\_GITLAB\KLOSLABSGAMINGCPPSFML\CPP-GAME-SFML2\LIBS\SFML\INCLUDE\SFML\AUDIO\MUSIC.HPP
D:\POLIBUDA\PROGRAMOWANIE\_GITLAB\KLOSLABSGAMINGCPPSFML\CPP-GAME-SFML2\LIBS\SFML\INCLUDE\SFML\AUDIO\SOUNDSTREAM.HPP
D:\POLIBUDA\PROGRAMOWANIE\_GITLAB\KLOSLABSGAMINGCPPSFML\CPP-GAME-SFML2\LIBS\SFML\INCLUDE\SFML\AUDIO\SOUNDSOURCE.HPP
D:\POLIBUDA\PROGRAMOWANIE\_GITLAB\KLOSLABSGAMINGCPPSFML\CPP-GAME-SFML2\LIBS\SFML\INCLUDE\SFML\AUDIO\ALRESOURCE.HPP
D:\POLIBUDA\PROGRAMOWANIE\_GITLAB\KLOSLABSGAMINGCPPSFML\CPP-GAME-SFML2\LIBS\SFML\INCLUDE\SFML\AUDIO\OUTPUTSOUNDFILE.HPP
D:\POLIBUDA\PROGRAMOWANIE\_GITLAB\KLOSLABSGAMINGCPPSFML\CPP-GAME-SFML2\LIBS\SFML\INCLUDE\SFML\AUDIO\SOUND.HPP
D:\POLIBUDA\PROGRAMOWANIE\_GITLAB\KLOSLABSGAMINGCPPSFML\CPP-GAME-SFML2\LIBS\SFML\INCLUDE\SFML\AUDIO\SOUNDBUFFER.HPP
D:\PROGRAMY\VISUAL2K15\VC\INCLUDE\SET
D:\POLIBUDA\PROGRAMOWANIE\_GITLAB\KLOSLABSGAMINGCPPSFML\CPP-GAME-SFML2\LIBS\SFML\INCLUDE\SFML\AUDIO\SOUNDBUFFERRECORDER.HPP
D:\POLIBUDA\PROGRAMOWANIE\_GITLAB\KLOSLABSGAMINGCPPSFML\CPP-GAME-SFML2\LIBS\SFML\INCLUDE\SFML\AUDIO\SOUNDRECORDER.HPP
D:\POLIBUDA\PROGRAMOWANIE\_GITLAB\KLOSLABSGAMINGCPPSFML\CPP-GAME-SFML2\LIBS\SFML\INCLUDE\SFML\AUDIO\SOUNDFILEFACTORY.HPP
D:\POLIBUDA\PROGRAMOWANIE\_GITLAB\KLOSLABSGAMINGCPPSFML\CPP-GAME-SFML2\LIBS\SFML\INCLUDE\SFML\AUDIO\SOUNDFILEFACTORY.INL
D:\POLIBUDA\PROGRAMOWANIE\_GITLAB\KLOSLABSGAMINGCPPSFML\CPP-GAME-SFML2\LIBS\SFML\INCLUDE\SFML\AUDIO\SOUNDFILEREADER.HPP
D:\POLIBUDA\PROGRAMOWANIE\_GITLAB\KLOSLABSGAMINGCPPSFML\CPP-GAME-SFML2\LIBS\SFML\INCLUDE\SFML\AUDIO\SOUNDFILEWRITER.HPP
D:\POLIBUDA\PROGRAMOWANIE\_GITLAB\KLOSLABSGAMINGCPPSFML\CPP-GAME-SFML2\SFML TEST\CLASSESDECLARATIONS.H
^D:\POLIBUDA\PROGRAMOWANIE\_GITLAB\KLOSLABSGAMINGCPPSFML\CPP-GAME-SFML2\SFML TEST\GAMESTAGE.CPP
D:\POLIBUDA\PROGRAMOWANIE\_GITLAB\KLOSLABSGAMINGCPPSFML\CPP-GAME-SFML2\SFML TEST\GAMESTAGE.H
D:\POLIBUDA\PROGRAMOWANIE\_GITLAB\KLOSLABSGAMINGCPPSFML\CPP-GAME-SFML2\SFML TEST\LIBSANDDECLARATIONS.H
D:\PROGRAMY\VISUAL2K15\VC\INCLUDE\IOSTREAM
D:\PROGRAMY\VISUAL2K15\VC\INCLUDE\ISTREAM
D:\PROGRAMY\VISUAL2K15\VC\INCLUDE\OSTREAM
D:\PROGRAMY\VISUAL2K15\VC\INCLUDE\IOS
D:\PROGRAMY\VISUAL2K15\VC\INCLUDE\XLOCNUM
D:\PROGRAMY\VISUAL2K15\VC\INCLUDE\CLIMITS
D:\PROGRAMY\VISUAL2K15\VC\INCLUDE\YVALS.H
D:\PROGRAMY\VISUAL2K15\VC\INCLUDE\XKEYCHECK.H
D:\PROGRAMY\VISUAL2K15\VC\INCLUDE\CRTDEFS.H
D:\PROGRAMY\VISUAL2K15\VC\INCLUDE\VCRUNTIME.H
D:\PROGRAMY\VISUAL2K15\VC\INCLUDE\SAL.H
D:\PROGRAMY\VISUAL2K15\VC\INCLUDE\CONCURRENCYSAL.H
D:\PROGRAMY\VISUAL2K15\VC\INCLUDE\VADEFS.H
C:\PROGRAM FILES (X86)\WINDOWS KITS\10\INCLUDE\10.0.10240.0\UCRT\CORECRT.H
D:\PROGRAMY\VISUAL2K15\VC\INCLUDE\USE_ANSI.H
D:\PROGRAMY\VISUAL2K15\VC\INCLUDE\LIMITS.H
D:\PROGRAMY\VISUAL2K15\VC\INCLUDE\CMATH
C:\PROGRAM FILES (X86)\WINDOWS KITS\10\INCLUDE\10.0.10240.0\UCRT\MATH.H
D:\PROGRAMY\VISUAL2K15\VC\INCLUDE\XTGMATH.H
D:\PROGRAMY\VISUAL2K15\VC\INCLUDE\XTR1COMMON
D:\PROGRAMY\VISUAL2K15\VC\INCLUDE\CSTDLIB
C:\PROGRAM FILES (X86)\WINDOWS KITS\10\INCLUDE\10.0.10240.0\UCRT\STDLIB.H
C:\PROGRAM FILES (X86)\WINDOWS KITS\10\INCLUDE\10.0.10240.0\UCRT\CORECRT_MALLOC.H
C:\PROGRAM FILES (X86)\WINDOWS KITS\10\INCLUDE\10.0.10240.0\UCRT\CORECRT_SEARCH.H
C:\PROGRAM FILES (X86)\WINDOWS KITS\10\INCLUDE\10.0.10240.0\UCRT\STDDEF.H
C:\PROGRAM FILES (X86)\WINDOWS KITS\10\INCLUDE\10.0.10240.0\UCRT\CORECRT_WSTDLIB.H
D:\PROGRAMY\VISUAL2K15\VC\INCLUDE\CSTDIO
C:\PROGRAM FILES (X86)\WINDOWS KITS\10\INCLUDE\10.0.10240.0\UCRT\STDIO.H
C:\PROGRAM FILES (X86)\WINDOWS KITS\10\INCLUDE\10.0.10240.0\UCRT\CORECRT_WSTDIO.H
C:\PROGRAM FILES (X86)\WINDOWS KITS\10\INCLUDE\10.0.10240.0\UCRT\CORECRT_STDIO_CONFIG.H
D:\PROGRAMY\VISUAL2K15\VC\INCLUDE\STREAMBUF
D:\PROGRAMY\VISUAL2K15\VC\INCLUDE\XIOSBASE
D:\PROGRAMY\VISUAL2K15\VC\INCLUDE\XLOCALE
D:\PROGRAMY\VISUAL2K15\VC\INCLUDE\CSTRING
C:\PROGRAM FILES (X86)\WINDOWS KITS\10\INCLUDE\10.0.10240.0\UCRT\STRING.H
C:\PROGRAM FILES (X86)\WINDOWS KITS\10\INCLUDE\10.0.10240.0\UCRT\CORECRT_MEMORY.H
C:\PROGRAM FILES (X86)\WINDOWS KITS\10\INCLUDE\10.0.10240.0\UCRT\CORECRT_MEMCPY_S.H
C:\PROGRAM FILES (X86)\WINDOWS KITS\10\INCLUDE\10.0.10240.0\UCRT\ERRNO.H
D:\PROGRAMY\VISUAL2K15\VC\INCLUDE\VCRUNTIME_STRING.H
C:\PROGRAM FILES (X86)\WINDOWS KITS\10\INCLUDE\10.0.10240.0\UCRT\CORECRT_WSTRING.H
D:\PROGRAMY\VISUAL2K15\VC\INCLUDE\STDEXCEPT
D:\PROGRAMY\VISUAL2K15\VC\INCLUDE\EXCEPTION
D:\PROGRAMY\VISUAL2K15\VC\INCLUDE\TYPE_TRAITS
D:\PROGRAMY\VISUAL2K15\VC\INCLUDE\XSTDDEF
D:\PROGRAMY\VISUAL2K15\VC\INCLUDE\CSTDDEF
D:\PROGRAMY\VISUAL2K15\VC\INCLUDE\INITIALIZER_LIST
C:\PROGRAM FILES (X86)\WINDOWS KITS\10\INCLUDE\10.0.10240.0\UCRT\MALLOC.H
D:\PROGRAMY\VISUAL2K15\VC\INCLUDE\VCRUNTIME_EXCEPTION.H
D:\PROGRAMY\VISUAL2K15\VC\INCLUDE\EH.H
C:\PROGRAM FILES (X86)\WINDOWS KITS\10\INCLUDE\10.0.10240.0\UCRT\CORECRT_TERMINATE.H
D:\PROGRAMY\VISUAL2K15\VC\INCLUDE\XSTRING
D:\PROGRAMY\VISUAL2K15\VC\INCLUDE\XMEMORY0
D:\PROGRAMY\VISUAL2K15\VC\INCLUDE\CSTDINT
D:\PROGRAMY\VISUAL2K15\VC\INCLUDE\STDINT.H
D:\PROGRAMY\VISUAL2K15\VC\INCLUDE\LIMITS
D:\PROGRAMY\VISUAL2K15\VC\INCLUDE\YMATH.H
D:\PROGRAMY\VISUAL2K15\VC\INCLUDE\CFLOAT
C:\PROGRAM FILES (X86)\WINDOWS KITS\10\INCLUDE\10.0.10240.0\UCRT\FLOAT.H
D:\PROGRAMY\VISUAL2K15\VC\INCLUDE\CWCHAR
C:\PROGRAM FILES (X86)\WINDOWS KITS\10\INCLUDE\10.0.10240.0\UCRT\WCHAR.H
C:\PROGRAM FILES (X86)\WINDOWS KITS\10\INCLUDE\10.0.10240.0\UCRT\CORECRT_WCONIO.H
C:\PROGRAM FILES (X86)\WINDOWS KITS\10\INCLUDE\10.0.10240.0\UCRT\CORECRT_WCTYPE.H
C:\PROGRAM FILES (X86)\WINDOWS KITS\10\INCLUDE\10.0.10240.0\UCRT\CORECRT_WDIRECT.H
C:\PROGRAM FILES (X86)\WINDOWS KITS\10\INCLUDE\10.0.10240.0\UCRT\CORECRT_WIO.H
C:\PROGRAM FILES (X86)\WINDOWS KITS\10\INCLUDE\10.0.10240.0\UCRT\CORECRT_SHARE.H
C:\PROGRAM FILES (X86)\WINDOWS KITS\10\INCLUDE\10.0.10240.0\UCRT\CORECRT_WPROCESS.H
C:\PROGRAM FILES (X86)\WINDOWS KITS\10\INCLUDE\10.0.10240.0\UCRT\CORECRT_WTIME.H
C:\PROGRAM FILES (X86)\WINDOWS KITS\10\INCLUDE\10.0.10240.0\UCRT\SYS\STAT.H
C:\PROGRAM FILES (X86)\WINDOWS KITS\10\INCLUDE\10.0.10240.0\UCRT\SYS\TYPES.H
D:\PROGRAMY\VISUAL2K15\VC\INCLUDE\NEW
D:\PROGRAMY\VISUAL2K15\VC\INCLUDE\VCRUNTIME_NEW.H
D:\PROGRAMY\VISUAL2K15\VC\INCLUDE\XUTILITY
D:\PROGRAMY\VISUAL2K15\VC\INCLUDE\UTILITY
D:\PROGRAMY\VISUAL2K15\VC\INCLUDE\IOSFWD
C:\PROGRAM FILES (X86)\WINDOWS KITS\10\INCLUDE\10.0.10240.0\UCRT\CRTDBG.H
D:\PROGRAMY\VISUAL2K15\VC\INCLUDE\VCRUNTIME_NEW_DEBUG.H
D:\PROGRAMY\VISUAL2K15\VC\INCLUDE\XATOMIC0.H
D:\PROGRAMY\VISUAL2K15\VC\INCLUDE\INTRIN.H
D:\PROGRAMY\VISUAL2K15\VC\INCLUDE\SETJMP.H
D:\PROGRAMY\VISUAL2K15\VC\INCLUDE\IMMINTRIN.H
D:\PROGRAMY\VISUAL2K15\VC\INCLUDE\WMMINTRIN.H
D:\PROGRAMY\VISUAL2K15\VC\INCLUDE\NMMINTRIN.H
D:\PROGRAMY\VISUAL2K15\VC\INCLUDE\SMMINTRIN.H
D:\PROGRAMY\VISUAL2K15\VC\INCLUDE\TMMINTRIN.H
D:\PROGRAMY\VISUAL2K15\VC\INCLUDE\PMMINTRIN.H
D:\PROGRAMY\VISUAL2K15\VC\INCLUDE\EMMINTRIN.H
D:\PROGRAMY\VISUAL2K15\VC\INCLUDE\XMMINTRIN.H
D:\PROGRAMY\VISUAL2K15\VC\INCLUDE\MMINTRIN.H
D:\PROGRAMY\VISUAL2K15\VC\INCLUDE\AMMINTRIN.H
D:\PROGRAMY\VISUAL2K15\VC\INCLUDE\TYPEINFO
D:\PROGRAMY\VISUAL2K15\VC\INCLUDE\VCRUNTIME_TYPEINFO.H
D:\PROGRAMY\VISUAL2K15\VC\INCLUDE\XLOCINFO
D:\PROGRAMY\VISUAL2K15\VC\INCLUDE\XLOCINFO.H
C:\PROGRAM FILES (X86)\WINDOWS KITS\10\INCLUDE\10.0.10240.0\UCRT\CTYPE.H
C:\PROGRAM FILES (X86)\WINDOWS KITS\10\INCLUDE\10.0.10240.0\UCRT\LOCALE.H
D:\PROGRAMY\VISUAL2K15\VC\INCLUDE\XFACET
D:\PROGRAMY\VISUAL2K15\VC\INCLUDE\SYSTEM_ERROR
D:\PROGRAMY\VISUAL2K15\VC\INCLUDE\CERRNO
C:\PROGRAM FILES (X86)\WINDOWS KITS\10\INCLUDE\10.0.10240.0\UCRT\SHARE.H
D:\PROGRAMY\VISUAL2K15\VC\INCLUDE\MEMORY
D:\PROGRAMY\VISUAL2K15\VC\INCLUDE\XMEMORY
D:\POLIBUDA\PROGRAMOWANIE\_GITLAB\KLOSLABSGAMINGCPPSFML\CPP-GAME-SFML2\LIBS\SFML\INCLUDE\SFML\GRAPHICS.HPP
D:\POLIBUDA\PROGRAMOWANIE\_GITLAB\KLOSLABSGAMINGCPPSFML\CPP-GAME-SFML2\LIBS\SFML\INCLUDE\SFML\WINDOW.HPP
D:\POLIBUDA\PROGRAMOWANIE\_GITLAB\KLOSLABSGAMINGCPPSFML\CPP-GAME-SFML2\LIBS\SFML\INCLUDE\SFML\SYSTEM.HPP
D:\POLIBUDA\PROGRAMOWANIE\_GITLAB\KLOSLABSGAMINGCPPSFML\CPP-GAME-SFML2\LIBS\SFML\INCLUDE\SFML\CONFIG.HPP
D:\POLIBUDA\PROGRAMOWANIE\_GITLAB\KLOSLABSGAMINGCPPSFML\CPP-GAME-SFML2\LIBS\SFML\INCLUDE\SFML\SYSTEM\CLOCK.HPP
D:\POLIBUDA\PROGRAMOWANIE\_GITLAB\KLOSLABSGAMINGCPPSFML\CPP-GAME-SFML2\LIBS\SFML\INCLUDE\SFML\SYSTEM\EXPORT.HPP
D:\POLIBUDA\PROGRAMOWANIE\_GITLAB\KLOSLABSGAMINGCPPSFML\CPP-GAME-SFML2\LIBS\SFML\INCLUDE\SFML\SYSTEM\TIME.HPP
D:\POLIBUDA\PROGRAMOWANIE\_GITLAB\KLOSLABSGAMINGCPPSFML\CPP-GAME-SFML2\LIBS\SFML\INCLUDE\SFML\SYSTEM\ERR.HPP
D:\POLIBUDA\PROGRAMOWANIE\_GITLAB\KLOSLABSGAMINGCPPSFML\CPP-GAME-SFML2\LIBS\SFML\INCLUDE\SFML\SYSTEM\FILEINPUTSTREAM.HPP
D:\POLIBUDA\PROGRAMOWANIE\_GITLAB\KLOSLABSGAMINGCPPSFML\CPP-GAME-SFML2\LIBS\SFML\INCLUDE\SFML\SYSTEM\INPUTSTREAM.HPP
D:\POLIBUDA\PROGRAMOWANIE\_GITLAB\KLOSLABSGAMINGCPPSFML\CPP-GAME-SFML2\LIBS\SFML\INCLUDE\SFML\SYSTEM\NONCOPYABLE.HPP
D:\PROGRAMY\VISUAL2K15\VC\INCLUDE\STRING
D:\POLIBUDA\PROGRAMOWANIE\_GITLAB\KLOSLABSGAMINGCPPSFML\CPP-GAME-SFML2\LIBS\SFML\INCLUDE\SFML\SYSTEM\LOCK.HPP
D:\POLIBUDA\PROGRAMOWANIE\_GITLAB\KLOSLABSGAMINGCPPSFML\CPP-GAME-SFML2\LIBS\SFML\INCLUDE\SFML\SYSTEM\MEMORYINPUTSTREAM.HPP
D:\POLIBUDA\PROGRAMOWANIE\_GITLAB\KLOSLABSGAMINGCPPSFML\CPP-GAME-SFML2\LIBS\SFML\INCLUDE\SFML\SYSTEM\MUTEX.HPP
D:\POLIBUDA\PROGRAMOWANIE\_GITLAB\KLOSLABSGAMINGCPPSFML\CPP-GAME-SFML2\LIBS\SFML\INCLUDE\SFML\SYSTEM\SLEEP.HPP
D:\POLIBUDA\PROGRAMOWANIE\_GITLAB\KLOSLABSGAMINGCPPSFML\CPP-GAME-SFML2\LIBS\SFML\INCLUDE\SFML\SYSTEM\STRING.HPP
D:\POLIBUDA\PROGRAMOWANIE\_GITLAB\KLOSLABSGAMINGCPPSFML\CPP-GAME-SFML2\LIBS\SFML\INCLUDE\SFML\SYSTEM\UTF.HPP
D:\PROGRAMY\VISUAL2K15\VC\INCLUDE\ALGORITHM
D:\PROGRAMY\VISUAL2K15\VC\INCLUDE\LOCALE
D:\PROGRAMY\VISUAL2K15\VC\INCLUDE\XLOCBUF
D:\PROGRAMY\VISUAL2K15\VC\INCLUDE\XLOCMES
D:\PROGRAMY\VISUAL2K15\VC\INCLUDE\XLOCMON
D:\PROGRAMY\VISUAL2K15\VC\INCLUDE\XLOCTIME
D:\PROGRAMY\VISUAL2K15\VC\INCLUDE\CTIME
C:\PROGRAM FILES (X86)\WINDOWS KITS\10\INCLUDE\10.0.10240.0\UCRT\TIME.H
D:\POLIBUDA\PROGRAMOWANIE\_GITLAB\KLOSLABSGAMINGCPPSFML\CPP-GAME-SFML2\LIBS\SFML\INCLUDE\SFML\SYSTEM\UTF.INL
D:\POLIBUDA\PROGRAMOWANIE\_GITLAB\KLOSLABSGAMINGCPPSFML\CPP-GAME-SFML2\LIBS\SFML\INCLUDE\SFML\SYSTEM\STRING.INL
D:\POLIBUDA\PROGRAMOWANIE\_GITLAB\KLOSLABSGAMINGCPPSFML\CPP-GAME-SFML2\LIBS\SFML\INCLUDE\SFML\SYSTEM\THREAD.HPP
D:\POLIBUDA\PROGRAMOWANIE\_GITLAB\KLOSLABSGAMINGCPPSFML\CPP-GAME-SFML2\LIBS\SFML\INCLUDE\SFML\SYSTEM\THREAD.INL
D:\POLIBUDA\PROGRAMOWANIE\_GITLAB\KLOSLABSGAMINGCPPSFML\CPP-GAME-SFML2\LIBS\SFML\INCLUDE\SFML\SYSTEM\THREADLOCAL.HPP
D:\POLIBUDA\PROGRAMOWANIE\_GITLAB\KLOSLABSGAMINGCPPSFML\CPP-GAME-SFML2\LIBS\SFML\INCLUDE\SFML\SYSTEM\THREADLOCALPTR.HPP
D:\POLIBUDA\PROGRAMOWANIE\_GITLAB\KLOSLABSGAMINGCPPSFML\CPP-GAME-SFML2\LIBS\SFML\INCLUDE\SFML\SYSTEM\THREADLOCALPTR.INL
D:\POLIBUDA\PROGRAMOWANIE\_GITLAB\KLOSLABSGAMINGCPPSFML\CPP-GAME-SFML2\LIBS\SFML\INCLUDE\SFML\SYSTEM\VECTOR2.HPP
D:\POLIBUDA\PROGRAMOWANIE\_GITLAB\KLOSLABSGAMINGCPPSFML\CPP-GAME-SFML2\LIBS\SFML\INCLUDE\SFML\SYSTEM\VECTOR2.INL
D:\POLIBUDA\PROGRAMOWANIE\_GITLAB\KLOSLABSGAMINGCPPSFML\CPP-GAME-SFML2\LIBS\SFML\INCLUDE\SFML\SYSTEM\VECTOR3.HPP
D:\POLIBUDA\PROGRAMOWANIE\_GITLAB\KLOSLABSGAMINGCPPSFML\CPP-GAME-SFML2\LIBS\SFML\INCLUDE\SFML\SYSTEM\VECTOR3.INL
D:\POLIBUDA\PROGRAMOWANIE\_GITLAB\KLOSLABSGAMINGCPPSFML\CPP-GAME-SFML2\LIBS\SFML\INCLUDE\SFML\WINDOW\CONTEXT.HPP
D:\POLIBUDA\PROGRAMOWANIE\_GITLAB\KLOSLABSGAMINGCPPSFML\CPP-GAME-SFML2\LIBS\SFML\INCLUDE\SFML\WINDOW\EXPORT.HPP
D:\POLIBUDA\PROGRAMOWANIE\_GITLAB\KLOSLABSGAMINGCPPSFML\CPP-GAME-SFML2\LIBS\SFML\INCLUDE\SFML\WINDOW\GLRESOURCE.HPP
D:\POLIBUDA\PROGRAMOWANIE\_GITLAB\KLOSLABSGAMINGCPPSFML\CPP-GAME-SFML2\LIBS\SFML\INCLUDE\SFML\WINDOW\CONTEXTSETTINGS.HPP
D:\POLIBUDA\PROGRAMOWANIE\_GITLAB\KLOSLABSGAMINGCPPSFML\CPP-GAME-SFML2\LIBS\SFML\INCLUDE\SFML\WINDOW\EVENT.HPP
D:\POLIBUDA\PROGRAMOWANIE\_GITLAB\KLOSLABSGAMINGCPPSFML\CPP-GAME-SFML2\LIBS\SFML\INCLUDE\SFML\WINDOW\JOYSTICK.HPP
D:\POLIBUDA\PROGRAMOWANIE\_GITLAB\KLOSLABSGAMINGCPPSFML\CPP-GAME-SFML2\LIBS\SFML\INCLUDE\SFML\WINDOW\KEYBOARD.HPP
D:\POLIBUDA\PROGRAMOWANIE\_GITLAB\KLOSLABSGAMINGCPPSFML\CPP-GAME-SFML2\LIBS\SFML\INCLUDE\SFML\WINDOW\MOUSE.HPP
D:\POLIBUDA\PROGRAMOWANIE\_GITLAB\KLOSLABSGAMINGCPPSFML\CPP-GAME-SFML2\LIBS\SFML\INCLUDE\SFML\WINDOW\SENSOR.HPP
D:\POLIBUDA\PROGRAMOWANIE\_GITLAB\KLOSLABSGAMINGCPPSFML\CPP-GAME-SFML2\LIBS\SFML\INCLUDE\SFML\WINDOW\TOUCH.HPP
D:\POLIBUDA\PROGRAMOWANIE\_GITLAB\KLOSLABSGAMINGCPPSFML\CPP-GAME-SFML2\LIBS\SFML\INCLUDE\SFML\WINDOW\VIDEOMODE.HPP
D:\PROGRAMY\VISUAL2K15\VC\INCLUDE\VECTOR
D:\POLIBUDA\PROGRAMOWANIE\_GITLAB\KLOSLABSGAMINGCPPSFML\CPP-GAME-SFML2\LIBS\SFML\INCLUDE\SFML\WINDOW\WINDOW.HPP
D:\POLIBUDA\PROGRAMOWANIE\_GITLAB\KLOSLABSGAMINGCPPSFML\CPP-GAME-SFML2\LIBS\SFML\INCLUDE\SFML\WINDOW\WINDOWHANDLE.HPP
D:\POLIBUDA\PROGRAMOWANIE\_GITLAB\KLOSLABSGAMINGCPPSFML\CPP-GAME-SFML2\LIBS\SFML\INCLUDE\SFML\WINDOW\WINDOWSTYLE.HPP
D:\POLIBUDA\PROGRAMOWANIE\_GITLAB\KLOSLABSGAMINGCPPSFML\CPP-GAME-SFML2\LIBS\SFML\INCLUDE\SFML\GRAPHICS\BLENDMODE.HPP
D:\POLIBUDA\PROGRAMOWANIE\_GITLAB\KLOSLABSGAMINGCPPSFML\CPP-GAME-SFML2\LIBS\SFML\INCLUDE\SFML\GRAPHICS\EXPORT.HPP
D:\POLIBUDA\PROGRAMOWANIE\_GITLAB\KLOSLABSGAMINGCPPSFML\CPP-GAME-SFML2\LIBS\SFML\INCLUDE\SFML\GRAPHICS\CIRCLESHAPE.HPP
D:\POLIBUDA\PROGRAMOWANIE\_GITLAB\KLOSLABSGAMINGCPPSFML\CPP-GAME-SFML2\LIBS\SFML\INCLUDE\SFML\GRAPHICS\SHAPE.HPP
D:\POLIBUDA\PROGRAMOWANIE\_GITLAB\KLOSLABSGAMINGCPPSFML\CPP-GAME-SFML2\LIBS\SFML\INCLUDE\SFML\GRAPHICS\DRAWABLE.HPP
D:\POLIBUDA\PROGRAMOWANIE\_GITLAB\KLOSLABSGAMINGCPPSFML\CPP-GAME-SFML2\LIBS\SFML\INCLUDE\SFML\GRAPHICS\RENDERSTATES.HPP
D:\POLIBUDA\PROGRAMOWANIE\_GITLAB\KLOSLABSGAMINGCPPSFML\CPP-GAME-SFML2\LIBS\SFML\INCLUDE\SFML\GRAPHICS\TRANSFORM.HPP
D:\POLIBUDA\PROGRAMOWANIE\_GITLAB\KLOSLABSGAMINGCPPSFML\CPP-GAME-SFML2\LIBS\SFML\INCLUDE\SFML\GRAPHICS\RECT.HPP
D:\POLIBUDA\PROGRAMOWANIE\_GITLAB\KLOSLABSGAMINGCPPSFML\CPP-GAME-SFML2\LIBS\SFML\INCLUDE\SFML\GRAPHICS\RECT.INL
D:\POLIBUDA\PROGRAMOWANIE\_GITLAB\KLOSLABSGAMINGCPPSFML\CPP-GAME-SFML2\LIBS\SFML\INCLUDE\SFML\GRAPHICS\TRANSFORMABLE.HPP
D:\POLIBUDA\PROGRAMOWANIE\_GITLAB\KLOSLABSGAMINGCPPSFML\CPP-GAME-SFML2\LIBS\SFML\INCLUDE\SFML\GRAPHICS\VERTEXARRAY.HPP
D:\POLIBUDA\PROGRAMOWANIE\_GITLAB\KLOSLABSGAMINGCPPSFML\CPP-GAME-SFML2\LIBS\SFML\INCLUDE\SFML\GRAPHICS\VERTEX.HPP
D:\POLIBUDA\PROGRAMOWANIE\_GITLAB\KLOSLABSGAMINGCPPSFML\CPP-GAME-SFML2\LIBS\SFML\INCLUDE\SFML\GRAPHICS\COLOR.HPP
D:\POLIBUDA\PROGRAMOWANIE\_GITLAB\KLOSLABSGAMINGCPPSFML\CPP-GAME-SFML2\LIBS\SFML\INCLUDE\SFML\GRAPHICS\PRIMITIVETYPE.HPP
D:\POLIBUDA\PROGRAMOWANIE\_GITLAB\KLOSLABSGAMINGCPPSFML\CPP-GAME-SFML2\LIBS\SFML\INCLUDE\SFML\GRAPHICS\CONVEXSHAPE.HPP
D:\POLIBUDA\PROGRAMOWANIE\_GITLAB\KLOSLABSGAMINGCPPSFML\CPP-GAME-SFML2\LIBS\SFML\INCLUDE\SFML\GRAPHICS\FONT.HPP
D:\POLIBUDA\PROGRAMOWANIE\_GITLAB\KLOSLABSGAMINGCPPSFML\CPP-GAME-SFML2\LIBS\SFML\INCLUDE\SFML\GRAPHICS\GLYPH.HPP
D:\POLIBUDA\PROGRAMOWANIE\_GITLAB\KLOSLABSGAMINGCPPSFML\CPP-GAME-SFML2\LIBS\SFML\INCLUDE\SFML\GRAPHICS\TEXTURE.HPP
D:\POLIBUDA\PROGRAMOWANIE\_GITLAB\KLOSLABSGAMINGCPPSFML\CPP-GAME-SFML2\LIBS\SFML\INCLUDE\SFML\GRAPHICS\IMAGE.HPP
D:\PROGRAMY\VISUAL2K15\VC\INCLUDE\MAP
D:\PROGRAMY\VISUAL2K15\VC\INCLUDE\TUPLE
D:\PROGRAMY\VISUAL2K15\VC\INCLUDE\XTREE
D:\POLIBUDA\PROGRAMOWANIE\_GITLAB\KLOSLABSGAMINGCPPSFML\CPP-GAME-SFML2\LIBS\SFML\INCLUDE\SFML\GRAPHICS\RECTANGLESHAPE.HPP
D:\POLIBUDA\PROGRAMOWANIE\_GITLAB\KLOSLABSGAMINGCPPSFML\CPP-GAME-SFML2\LIBS\SFML\INCLUDE\SFML\GRAPHICS\RENDERTARGET.HPP
D:\POLIBUDA\PROGRAMOWANIE\_GITLAB\KLOSLABSGAMINGCPPSFML\CPP-GAME-SFML2\LIBS\SFML\INCLUDE\SFML\GRAPHICS\VIEW.HPP
D:\POLIBUDA\PROGRAMOWANIE\_GITLAB\KLOSLABSGAMINGCPPSFML\CPP-GAME-SFML2\LIBS\SFML\INCLUDE\SFML\GRAPHICS\RENDERTEXTURE.HPP
D:\POLIBUDA\PROGRAMOWANIE\_GITLAB\KLOSLABSGAMINGCPPSFML\CPP-GAME-SFML2\LIBS\SFML\INCLUDE\SFML\GRAPHICS\RENDERWINDOW.HPP
D:\POLIBUDA\PROGRAMOWANIE\_GITLAB\KLOSLABSGAMINGCPPSFML\CPP-GAME-SFML2\LIBS\SFML\INCLUDE\SFML\GRAPHICS\SHADER.HPP
D:\POLIBUDA\PROGRAMOWANIE\_GITLAB\KLOSLABSGAMINGCPPSFML\CPP-GAME-SFML2\LIBS\SFML\INCLUDE\SFML\GRAPHICS\SPRITE.HPP
D:\POLIBUDA\PROGRAMOWANIE\_GITLAB\KLOSLABSGAMINGCPPSFML\CPP-GAME-SFML2\LIBS\SFML\INCLUDE\SFML\GRAPHICS\TEXT.HPP
D:\POLIBUDA\PROGRAMOWANIE\_GITLAB\KLOSLABSGAMINGCPPSFML\CPP-GAME-SFML2\LIBS\SFML\INCLUDE\SFML\AUDIO.HPP
D:\POLIBUDA\PROGRAMOWANIE\_GITLAB\KLOSLABSGAMINGCPPSFML\CPP-GAME-SFML2\LIBS\SFML\INCLUDE\SFML\AUDIO\INPUTSOUNDFILE.HPP
D:\POLIBUDA\PROGRAMOWANIE\_GITLAB\KLOSLABSGAMINGCPPSFML\CPP-GAME-SFML2\LIBS\SFML\INCLUDE\SFML\AUDIO\EXPORT.HPP
D:\POLIBUDA\PROGRAMOWANIE\_GITLAB\KLOSLABSGAMINGCPPSFML\CPP-GAME-SFML2\LIBS\SFML\INCLUDE\SFML\AUDIO\LISTENER.HPP
D:\POLIBUDA\PROGRAMOWANIE\_GITLAB\KLOSLABSGAMINGCPPSFML\CPP-GAME-SFML2\LIBS\SFML\INCLUDE\SFML\AUDIO\MUSIC.HPP
D:\POLIBUDA\PROGRAMOWANIE\_GITLAB\KLOSLABSGAMINGCPPSFML\CPP-GAME-SFML2\LIBS\SFML\INCLUDE\SFML\AUDIO\SOUNDSTREAM.HPP
D:\POLIBUDA\PROGRAMOWANIE\_GITLAB\KLOSLABSGAMINGCPPSFML\CPP-GAME-SFML2\LIBS\SFML\INCLUDE\SFML\AUDIO\SOUNDSOURCE.HPP
D:\POLIBUDA\PROGRAMOWANIE\_GITLAB\KLOSLABSGAMINGCPPSFML\CPP-GAME-SFML2\LIBS\SFML\INCLUDE\SFML\AUDIO\ALRESOURCE.HPP
D:\POLIBUDA\PROGRAMOWANIE\_GITLAB\KLOSLABSGAMINGCPPSFML\CPP-GAME-SFML2\LIBS\SFML\INCLUDE\SFML\AUDIO\OUTPUTSOUNDFILE.HPP
D:\POLIBUDA\PROGRAMOWANIE\_GITLAB\KLOSLABSGAMINGCPPSFML\CPP-GAME-SFML2\LIBS\SFML\INCLUDE\SFML\AUDIO\SOUND.HPP
D:\POLIBUDA\PROGRAMOWANIE\_GITLAB\KLOSLABSGAMINGCPPSFML\CPP-GAME-SFML2\LIBS\SFML\INCLUDE\SFML\AUDIO\SOUNDBUFFER.HPP
D:\PROGRAMY\VISUAL2K15\VC\INCLUDE\SET
D:\POLIBUDA\PROGRAMOWANIE\_GITLAB\KLOSLABSGAMINGCPPSFML\CPP-GAME-SFML2\LIBS\SFML\INCLUDE\SFML\AUDIO\SOUNDBUFFERRECORDER.HPP
D:\POLIBUDA\PROGRAMOWANIE\_GITLAB\KLOSLABSGAMINGCPPSFML\CPP-GAME-SFML2\LIBS\SFML\INCLUDE\SFML\AUDIO\SOUNDRECORDER.HPP
D:\POLIBUDA\PROGRAMOWANIE\_GITLAB\KLOSLABSGAMINGCPPSFML\CPP-GAME-SFML2\LIBS\SFML\INCLUDE\SFML\AUDIO\SOUNDFILEFACTORY.HPP
D:\POLIBUDA\PROGRAMOWANIE\_GITLAB\KLOSLABSGAMINGCPPSFML\CPP-GAME-SFML2\LIBS\SFML\INCLUDE\SFML\AUDIO\SOUNDFILEFACTORY.INL
D:\POLIBUDA\PROGRAMOWANIE\_GITLAB\KLOSLABSGAMINGCPPSFML\CPP-GAME-SFML2\LIBS\SFML\INCLUDE\SFML\AUDIO\SOUNDFILEREADER.HPP
D:\POLIBUDA\PROGRAMOWANIE\_GITLAB\KLOSLABSGAMINGCPPSFML\CPP-GAME-SFML2\LIBS\SFML\INCLUDE\SFML\AUDIO\SOUNDFILEWRITER.HPP
D:\POLIBUDA\PROGRAMOWANIE\_GITLAB\KLOSLABSGAMINGCPPSFML\CPP-GAME-SFML2\SFML TEST\CLASSESDECLARATIONS.H
D:\POLIBUDA\PROGRAMOWANIE\_GITLAB\KLOSLABSGAMINGCPPSFML\CPP-GAME-SFML2\SFML TEST\FUNCTIONS.H
^D:\POLIBUDA\PROGRAMOWANIE\_GITLAB\KLOSLABSGAMINGCPPSFML\CPP-GAME-SFML2\SFML TEST\MENU.CPP
D:\POLIBUDA\PROGRAMOWANIE\_GITLAB\KLOSLABSGAMINGCPPSFML\CPP-GAME-SFML2\SFML TEST\MENU.H
D:\POLIBUDA\PROGRAMOWANIE\_GITLAB\KLOSLABSGAMINGCPPSFML\CPP-GAME-SFML2\SFML TEST\LIBSANDDECLARATIONS.H
D:\PROGRAMY\VISUAL2K15\VC\INCLUDE\IOSTREAM
D:\PROGRAMY\VISUAL2K15\VC\INCLUDE\ISTREAM
D:\PROGRAMY\VISUAL2K15\VC\INCLUDE\OSTREAM
D:\PROGRAMY\VISUAL2K15\VC\INCLUDE\IOS
D:\PROGRAMY\VISUAL2K15\VC\INCLUDE\XLOCNUM
D:\PROGRAMY\VISUAL2K15\VC\INCLUDE\CLIMITS
D:\PROGRAMY\VISUAL2K15\VC\INCLUDE\YVALS.H
D:\PROGRAMY\VISUAL2K15\VC\INCLUDE\XKEYCHECK.H
D:\PROGRAMY\VISUAL2K15\VC\INCLUDE\CRTDEFS.H
D:\PROGRAMY\VISUAL2K15\VC\INCLUDE\VCRUNTIME.H
D:\PROGRAMY\VISUAL2K15\VC\INCLUDE\SAL.H
D:\PROGRAMY\VISUAL2K15\VC\INCLUDE\CONCURRENCYSAL.H
D:\PROGRAMY\VISUAL2K15\VC\INCLUDE\VADEFS.H
C:\PROGRAM FILES (X86)\WINDOWS KITS\10\INCLUDE\10.0.10240.0\UCRT\CORECRT.H
D:\PROGRAMY\VISUAL2K15\VC\INCLUDE\USE_ANSI.H
D:\PROGRAMY\VISUAL2K15\VC\INCLUDE\LIMITS.H
D:\PROGRAMY\VISUAL2K15\VC\INCLUDE\CMATH
C:\PROGRAM FILES (X86)\WINDOWS KITS\10\INCLUDE\10.0.10240.0\UCRT\MATH.H
D:\PROGRAMY\VISUAL2K15\VC\INCLUDE\XTGMATH.H
D:\PROGRAMY\VISUAL2K15\VC\INCLUDE\XTR1COMMON
D:\PROGRAMY\VISUAL2K15\VC\INCLUDE\CSTDLIB
C:\PROGRAM FILES (X86)\WINDOWS KITS\10\INCLUDE\10.0.10240.0\UCRT\STDLIB.H
C:\PROGRAM FILES (X86)\WINDOWS KITS\10\INCLUDE\10.0.10240.0\UCRT\CORECRT_MALLOC.H
C:\PROGRAM FILES (X86)\WINDOWS KITS\10\INCLUDE\10.0.10240.0\UCRT\CORECRT_SEARCH.H
C:\PROGRAM FILES (X86)\WINDOWS KITS\10\INCLUDE\10.0.10240.0\UCRT\STDDEF.H
C:\PROGRAM FILES (X86)\WINDOWS KITS\10\INCLUDE\10.0.10240.0\UCRT\CORECRT_WSTDLIB.H
D:\PROGRAMY\VISUAL2K15\VC\INCLUDE\CSTDIO
C:\PROGRAM FILES (X86)\WINDOWS KITS\10\INCLUDE\10.0.10240.0\UCRT\STDIO.H
C:\PROGRAM FILES (X86)\WINDOWS KITS\10\INCLUDE\10.0.10240.0\UCRT\CORECRT_WSTDIO.H
C:\PROGRAM FILES (X86)\WINDOWS KITS\10\INCLUDE\10.0.10240.0\UCRT\CORECRT_STDIO_CONFIG.H
D:\PROGRAMY\VISUAL2K15\VC\INCLUDE\STREAMBUF
D:\PROGRAMY\VISUAL2K15\VC\INCLUDE\XIOSBASE
D:\PROGRAMY\VISUAL2K15\VC\INCLUDE\XLOCALE
D:\PROGRAMY\VISUAL2K15\VC\INCLUDE\CSTRING
C:\PROGRAM FILES (X86)\WINDOWS KITS\10\INCLUDE\10.0.10240.0\UCRT\STRING.H
C:\PROGRAM FILES (X86)\WINDOWS KITS\10\INCLUDE\10.0.10240.0\UCRT\CORECRT_MEMORY.H
C:\PROGRAM FILES (X86)\WINDOWS KITS\10\INCLUDE\10.0.10240.0\UCRT\CORECRT_MEMCPY_S.H
C:\PROGRAM FILES (X86)\WINDOWS KITS\10\INCLUDE\10.0.10240.0\UCRT\ERRNO.H
D:\PROGRAMY\VISUAL2K15\VC\INCLUDE\VCRUNTIME_STRING.H
C:\PROGRAM FILES (X86)\WINDOWS KITS\10\INCLUDE\10.0.10240.0\UCRT\CORECRT_WSTRING.H
D:\PROGRAMY\VISUAL2K15\VC\INCLUDE\STDEXCEPT
D:\PROGRAMY\VISUAL2K15\VC\INCLUDE\EXCEPTION
D:\PROGRAMY\VISUAL2K15\VC\INCLUDE\TYPE_TRAITS
D:\PROGRAMY\VISUAL2K15\VC\INCLUDE\XSTDDEF
D:\PROGRAMY\VISUAL2K15\VC\INCLUDE\CSTDDEF
D:\PROGRAMY\VISUAL2K15\VC\INCLUDE\INITIALIZER_LIST
C:\PROGRAM FILES (X86)\WINDOWS KITS\10\INCLUDE\10.0.10240.0\UCRT\MALLOC.H
D:\PROGRAMY\VISUAL2K15\VC\INCLUDE\VCRUNTIME_EXCEPTION.H
D:\PROGRAMY\VISUAL2K15\VC\INCLUDE\EH.H
C:\PROGRAM FILES (X86)\WINDOWS KITS\10\INCLUDE\10.0.10240.0\UCRT\CORECRT_TERMINATE.H
D:\PROGRAMY\VISUAL2K15\VC\INCLUDE\XSTRING
D:\PROGRAMY\VISUAL2K15\VC\INCLUDE\XMEMORY0
D:\PROGRAMY\VISUAL2K15\VC\INCLUDE\CSTDINT
D:\PROGRAMY\VISUAL2K15\VC\INCLUDE\STDINT.H
D:\PROGRAMY\VISUAL2K15\VC\INCLUDE\LIMITS
D:\PROGRAMY\VISUAL2K15\VC\INCLUDE\YMATH.H
D:\PROGRAMY\VISUAL2K15\VC\INCLUDE\CFLOAT
C:\PROGRAM FILES (X86)\WINDOWS KITS\10\INCLUDE\10.0.10240.0\UCRT\FLOAT.H
D:\PROGRAMY\VISUAL2K15\VC\INCLUDE\CWCHAR
C:\PROGRAM FILES (X86)\WINDOWS KITS\10\INCLUDE\10.0.10240.0\UCRT\WCHAR.H
C:\PROGRAM FILES (X86)\WINDOWS KITS\10\INCLUDE\10.0.10240.0\UCRT\CORECRT_WCONIO.H
C:\PROGRAM FILES (X86)\WINDOWS KITS\10\INCLUDE\10.0.10240.0\UCRT\CORECRT_WCTYPE.H
C:\PROGRAM FILES (X86)\WINDOWS KITS\10\INCLUDE\10.0.10240.0\UCRT\CORECRT_WDIRECT.H
C:\PROGRAM FILES (X86)\WINDOWS KITS\10\INCLUDE\10.0.10240.0\UCRT\CORECRT_WIO.H
C:\PROGRAM FILES (X86)\WINDOWS KITS\10\INCLUDE\10.0.10240.0\UCRT\CORECRT_SHARE.H
C:\PROGRAM FILES (X86)\WINDOWS KITS\10\INCLUDE\10.0.10240.0\UCRT\CORECRT_WPROCESS.H
C:\PROGRAM FILES (X86)\WINDOWS KITS\10\INCLUDE\10.0.10240.0\UCRT\CORECRT_WTIME.H
C:\PROGRAM FILES (X86)\WINDOWS KITS\10\INCLUDE\10.0.10240.0\UCRT\SYS\STAT.H
C:\PROGRAM FILES (X86)\WINDOWS KITS\10\INCLUDE\10.0.10240.0\UCRT\SYS\TYPES.H
D:\PROGRAMY\VISUAL2K15\VC\INCLUDE\NEW
D:\PROGRAMY\VISUAL2K15\VC\INCLUDE\VCRUNTIME_NEW.H
D:\PROGRAMY\VISUAL2K15\VC\INCLUDE\XUTILITY
D:\PROGRAMY\VISUAL2K15\VC\INCLUDE\UTILITY
D:\PROGRAMY\VISUAL2K15\VC\INCLUDE\IOSFWD
C:\PROGRAM FILES (X86)\WINDOWS KITS\10\INCLUDE\10.0.10240.0\UCRT\CRTDBG.H
D:\PROGRAMY\VISUAL2K15\VC\INCLUDE\VCRUNTIME_NEW_DEBUG.H
D:\PROGRAMY\VISUAL2K15\VC\INCLUDE\XATOMIC0.H
D:\PROGRAMY\VISUAL2K15\VC\INCLUDE\INTRIN.H
D:\PROGRAMY\VISUAL2K15\VC\INCLUDE\SETJMP.H
D:\PROGRAMY\VISUAL2K15\VC\INCLUDE\IMMINTRIN.H
D:\PROGRAMY\VISUAL2K15\VC\INCLUDE\WMMINTRIN.H
D:\PROGRAMY\VISUAL2K15\VC\INCLUDE\NMMINTRIN.H
D:\PROGRAMY\VISUAL2K15\VC\INCLUDE\SMMINTRIN.H
D:\PROGRAMY\VISUAL2K15\VC\INCLUDE\TMMINTRIN.H
D:\PROGRAMY\VISUAL2K15\VC\INCLUDE\PMMINTRIN.H
D:\PROGRAMY\VISUAL2K15\VC\INCLUDE\EMMINTRIN.H
D:\PROGRAMY\VISUAL2K15\VC\INCLUDE\XMMINTRIN.H
D:\PROGRAMY\VISUAL2K15\VC\INCLUDE\MMINTRIN.H
D:\PROGRAMY\VISUAL2K15\VC\INCLUDE\AMMINTRIN.H
D:\PROGRAMY\VISUAL2K15\VC\INCLUDE\TYPEINFO
D:\PROGRAMY\VISUAL2K15\VC\INCLUDE\VCRUNTIME_TYPEINFO.H
D:\PROGRAMY\VISUAL2K15\VC\INCLUDE\XLOCINFO
D:\PROGRAMY\VISUAL2K15\VC\INCLUDE\XLOCINFO.H
C:\PROGRAM FILES (X86)\WINDOWS KITS\10\INCLUDE\10.0.10240.0\UCRT\CTYPE.H
C:\PROGRAM FILES (X86)\WINDOWS KITS\10\INCLUDE\10.0.10240.0\UCRT\LOCALE.H
D:\PROGRAMY\VISUAL2K15\VC\INCLUDE\XFACET
D:\PROGRAMY\VISUAL2K15\VC\INCLUDE\SYSTEM_ERROR
D:\PROGRAMY\VISUAL2K15\VC\INCLUDE\CERRNO
C:\PROGRAM FILES (X86)\WINDOWS KITS\10\INCLUDE\10.0.10240.0\UCRT\SHARE.H
D:\PROGRAMY\VISUAL2K15\VC\INCLUDE\MEMORY
D:\PROGRAMY\VISUAL2K15\VC\INCLUDE\XMEMORY
D:\POLIBUDA\PROGRAMOWANIE\_GITLAB\KLOSLABSGAMINGCPPSFML\CPP-GAME-SFML2\LIBS\SFML\INCLUDE\SFML\GRAPHICS.HPP
D:\POLIBUDA\PROGRAMOWANIE\_GITLAB\KLOSLABSGAMINGCPPSFML\CPP-GAME-SFML2\LIBS\SFML\INCLUDE\SFML\WINDOW.HPP
D:\POLIBUDA\PROGRAMOWANIE\_GITLAB\KLOSLABSGAMINGCPPSFML\CPP-GAME-SFML2\LIBS\SFML\INCLUDE\SFML\SYSTEM.HPP
D:\POLIBUDA\PROGRAMOWANIE\_GITLAB\KLOSLABSGAMINGCPPSFML\CPP-GAME-SFML2\LIBS\SFML\INCLUDE\SFML\CONFIG.HPP
D:\POLIBUDA\PROGRAMOWANIE\_GITLAB\KLOSLABSGAMINGCPPSFML\CPP-GAME-SFML2\LIBS\SFML\INCLUDE\SFML\SYSTEM\CLOCK.HPP
D:\POLIBUDA\PROGRAMOWANIE\_GITLAB\KLOSLABSGAMINGCPPSFML\CPP-GAME-SFML2\LIBS\SFML\INCLUDE\SFML\SYSTEM\EXPORT.HPP
D:\POLIBUDA\PROGRAMOWANIE\_GITLAB\KLOSLABSGAMINGCPPSFML\CPP-GAME-SFML2\LIBS\SFML\INCLUDE\SFML\SYSTEM\TIME.HPP
D:\POLIBUDA\PROGRAMOWANIE\_GITLAB\KLOSLABSGAMINGCPPSFML\CPP-GAME-SFML2\LIBS\SFML\INCLUDE\SFML\SYSTEM\ERR.HPP
D:\POLIBUDA\PROGRAMOWANIE\_GITLAB\KLOSLABSGAMINGCPPSFML\CPP-GAME-SFML2\LIBS\SFML\INCLUDE\SFML\SYSTEM\FILEINPUTSTREAM.HPP
D:\POLIBUDA\PROGRAMOWANIE\_GITLAB\KLOSLABSGAMINGCPPSFML\CPP-GAME-SFML2\LIBS\SFML\INCLUDE\SFML\SYSTEM\INPUTSTREAM.HPP
D:\POLIBUDA\PROGRAMOWANIE\_GITLAB\KLOSLABSGAMINGCPPSFML\CPP-GAME-SFML2\LIBS\SFML\INCLUDE\SFML\SYSTEM\NONCOPYABLE.HPP
D:\PROGRAMY\VISUAL2K15\VC\INCLUDE\STRING
D:\POLIBUDA\PROGRAMOWANIE\_GITLAB\KLOSLABSGAMINGCPPSFML\CPP-GAME-SFML2\LIBS\SFML\INCLUDE\SFML\SYSTEM\LOCK.HPP
D:\POLIBUDA\PROGRAMOWANIE\_GITLAB\KLOSLABSGAMINGCPPSFML\CPP-GAME-SFML2\LIBS\SFML\INCLUDE\SFML\SYSTEM\MEMORYINPUTSTREAM.HPP
D:\POLIBUDA\PROGRAMOWANIE\_GITLAB\KLOSLABSGAMINGCPPSFML\CPP-GAME-SFML2\LIBS\SFML\INCLUDE\SFML\SYSTEM\MUTEX.HPP
D:\POLIBUDA\PROGRAMOWANIE\_GITLAB\KLOSLABSGAMINGCPPSFML\CPP-GAME-SFML2\LIBS\SFML\INCLUDE\SFML\SYSTEM\SLEEP.HPP
D:\POLIBUDA\PROGRAMOWANIE\_GITLAB\KLOSLABSGAMINGCPPSFML\CPP-GAME-SFML2\LIBS\SFML\INCLUDE\SFML\SYSTEM\STRING.HPP
D:\POLIBUDA\PROGRAMOWANIE\_GITLAB\KLOSLABSGAMINGCPPSFML\CPP-GAME-SFML2\LIBS\SFML\INCLUDE\SFML\SYSTEM\UTF.HPP
D:\PROGRAMY\VISUAL2K15\VC\INCLUDE\ALGORITHM
D:\PROGRAMY\VISUAL2K15\VC\INCLUDE\LOCALE
D:\PROGRAMY\VISUAL2K15\VC\INCLUDE\XLOCBUF
D:\PROGRAMY\VISUAL2K15\VC\INCLUDE\XLOCMES
D:\PROGRAMY\VISUAL2K15\VC\INCLUDE\XLOCMON
D:\PROGRAMY\VISUAL2K15\VC\INCLUDE\XLOCTIME
D:\PROGRAMY\VISUAL2K15\VC\INCLUDE\CTIME
C:\PROGRAM FILES (X86)\WINDOWS KITS\10\INCLUDE\10.0.10240.0\UCRT\TIME.H
D:\POLIBUDA\PROGRAMOWANIE\_GITLAB\KLOSLABSGAMINGCPPSFML\CPP-GAME-SFML2\LIBS\SFML\INCLUDE\SFML\SYSTEM\UTF.INL
D:\POLIBUDA\PROGRAMOWANIE\_GITLAB\KLOSLABSGAMINGCPPSFML\CPP-GAME-SFML2\LIBS\SFML\INCLUDE\SFML\SYSTEM\STRING.INL
D:\POLIBUDA\PROGRAMOWANIE\_GITLAB\KLOSLABSGAMINGCPPSFML\CPP-GAME-SFML2\LIBS\SFML\INCLUDE\SFML\SYSTEM\THREAD.HPP
D:\POLIBUDA\PROGRAMOWANIE\_GITLAB\KLOSLABSGAMINGCPPSFML\CPP-GAME-SFML2\LIBS\SFML\INCLUDE\SFML\SYSTEM\THREAD.INL
D:\POLIBUDA\PROGRAMOWANIE\_GITLAB\KLOSLABSGAMINGCPPSFML\CPP-GAME-SFML2\LIBS\SFML\INCLUDE\SFML\SYSTEM\THREADLOCAL.HPP
D:\POLIBUDA\PROGRAMOWANIE\_GITLAB\KLOSLABSGAMINGCPPSFML\CPP-GAME-SFML2\LIBS\SFML\INCLUDE\SFML\SYSTEM\THREADLOCALPTR.HPP
D:\POLIBUDA\PROGRAMOWANIE\_GITLAB\KLOSLABSGAMINGCPPSFML\CPP-GAME-SFML2\LIBS\SFML\INCLUDE\SFML\SYSTEM\THREADLOCALPTR.INL
D:\POLIBUDA\PROGRAMOWANIE\_GITLAB\KLOSLABSGAMINGCPPSFML\CPP-GAME-SFML2\LIBS\SFML\INCLUDE\SFML\SYSTEM\VECTOR2.HPP
D:\POLIBUDA\PROGRAMOWANIE\_GITLAB\KLOSLABSGAMINGCPPSFML\CPP-GAME-SFML2\LIBS\SFML\INCLUDE\SFML\SYSTEM\VECTOR2.INL
D:\POLIBUDA\PROGRAMOWANIE\_GITLAB\KLOSLABSGAMINGCPPSFML\CPP-GAME-SFML2\LIBS\SFML\INCLUDE\SFML\SYSTEM\VECTOR3.HPP
D:\POLIBUDA\PROGRAMOWANIE\_GITLAB\KLOSLABSGAMINGCPPSFML\CPP-GAME-SFML2\LIBS\SFML\INCLUDE\SFML\SYSTEM\VECTOR3.INL
D:\POLIBUDA\PROGRAMOWANIE\_GITLAB\KLOSLABSGAMINGCPPSFML\CPP-GAME-SFML2\LIBS\SFML\INCLUDE\SFML\WINDOW\CONTEXT.HPP
D:\POLIBUDA\PROGRAMOWANIE\_GITLAB\KLOSLABSGAMINGCPPSFML\CPP-GAME-SFML2\LIBS\SFML\INCLUDE\SFML\WINDOW\EXPORT.HPP
D:\POLIBUDA\PROGRAMOWANIE\_GITLAB\KLOSLABSGAMINGCPPSFML\CPP-GAME-SFML2\LIBS\SFML\INCLUDE\SFML\WINDOW\GLRESOURCE.HPP
D:\POLIBUDA\PROGRAMOWANIE\_GITLAB\KLOSLABSGAMINGCPPSFML\CPP-GAME-SFML2\LIBS\SFML\INCLUDE\SFML\WINDOW\CONTEXTSETTINGS.HPP
D:\POLIBUDA\PROGRAMOWANIE\_GITLAB\KLOSLABSGAMINGCPPSFML\CPP-GAME-SFML2\LIBS\SFML\INCLUDE\SFML\WINDOW\EVENT.HPP
D:\POLIBUDA\PROGRAMOWANIE\_GITLAB\KLOSLABSGAMINGCPPSFML\CPP-GAME-SFML2\LIBS\SFML\INCLUDE\SFML\WINDOW\JOYSTICK.HPP
D:\POLIBUDA\PROGRAMOWANIE\_GITLAB\KLOSLABSGAMINGCPPSFML\CPP-GAME-SFML2\LIBS\SFML\INCLUDE\SFML\WINDOW\KEYBOARD.HPP
D:\POLIBUDA\PROGRAMOWANIE\_GITLAB\KLOSLABSGAMINGCPPSFML\CPP-GAME-SFML2\LIBS\SFML\INCLUDE\SFML\WINDOW\MOUSE.HPP
D:\POLIBUDA\PROGRAMOWANIE\_GITLAB\KLOSLABSGAMINGCPPSFML\CPP-GAME-SFML2\LIBS\SFML\INCLUDE\SFML\WINDOW\SENSOR.HPP
D:\POLIBUDA\PROGRAMOWANIE\_GITLAB\KLOSLABSGAMINGCPPSFML\CPP-GAME-SFML2\LIBS\SFML\INCLUDE\SFML\WINDOW\TOUCH.HPP
D:\POLIBUDA\PROGRAMOWANIE\_GITLAB\KLOSLABSGAMINGCPPSFML\CPP-GAME-SFML2\LIBS\SFML\INCLUDE\SFML\WINDOW\VIDEOMODE.HPP
D:\PROGRAMY\VISUAL2K15\VC\INCLUDE\VECTOR
D:\POLIBUDA\PROGRAMOWANIE\_GITLAB\KLOSLABSGAMINGCPPSFML\CPP-GAME-SFML2\LIBS\SFML\INCLUDE\SFML\WINDOW\WINDOW.HPP
D:\POLIBUDA\PROGRAMOWANIE\_GITLAB\KLOSLABSGAMINGCPPSFML\CPP-GAME-SFML2\LIBS\SFML\INCLUDE\SFML\WINDOW\WINDOWHANDLE.HPP
D:\POLIBUDA\PROGRAMOWANIE\_GITLAB\KLOSLABSGAMINGCPPSFML\CPP-GAME-SFML2\LIBS\SFML\INCLUDE\SFML\WINDOW\WINDOWSTYLE.HPP
D:\POLIBUDA\PROGRAMOWANIE\_GITLAB\KLOSLABSGAMINGCPPSFML\CPP-GAME-SFML2\LIBS\SFML\INCLUDE\SFML\GRAPHICS\BLENDMODE.HPP
D:\POLIBUDA\PROGRAMOWANIE\_GITLAB\KLOSLABSGAMINGCPPSFML\CPP-GAME-SFML2\LIBS\SFML\INCLUDE\SFML\GRAPHICS\EXPORT.HPP
D:\POLIBUDA\PROGRAMOWANIE\_GITLAB\KLOSLABSGAMINGCPPSFML\CPP-GAME-SFML2\LIBS\SFML\INCLUDE\SFML\GRAPHICS\CIRCLESHAPE.HPP
D:\POLIBUDA\PROGRAMOWANIE\_GITLAB\KLOSLABSGAMINGCPPSFML\CPP-GAME-SFML2\LIBS\SFML\INCLUDE\SFML\GRAPHICS\SHAPE.HPP
D:\POLIBUDA\PROGRAMOWANIE\_GITLAB\KLOSLABSGAMINGCPPSFML\CPP-GAME-SFML2\LIBS\SFML\INCLUDE\SFML\GRAPHICS\DRAWABLE.HPP
D:\POLIBUDA\PROGRAMOWANIE\_GITLAB\KLOSLABSGAMINGCPPSFML\CPP-GAME-SFML2\LIBS\SFML\INCLUDE\SFML\GRAPHICS\RENDERSTATES.HPP
D:\POLIBUDA\PROGRAMOWANIE\_GITLAB\KLOSLABSGAMINGCPPSFML\CPP-GAME-SFML2\LIBS\SFML\INCLUDE\SFML\GRAPHICS\TRANSFORM.HPP
D:\POLIBUDA\PROGRAMOWANIE\_GITLAB\KLOSLABSGAMINGCPPSFML\CPP-GAME-SFML2\LIBS\SFML\INCLUDE\SFML\GRAPHICS\RECT.HPP
D:\POLIBUDA\PROGRAMOWANIE\_GITLAB\KLOSLABSGAMINGCPPSFML\CPP-GAME-SFML2\LIBS\SFML\INCLUDE\SFML\GRAPHICS\RECT.INL
D:\POLIBUDA\PROGRAMOWANIE\_GITLAB\KLOSLABSGAMINGCPPSFML\CPP-GAME-SFML2\LIBS\SFML\INCLUDE\SFML\GRAPHICS\TRANSFORMABLE.HPP
D:\POLIBUDA\PROGRAMOWANIE\_GITLAB\KLOSLABSGAMINGCPPSFML\CPP-GAME-SFML2\LIBS\SFML\INCLUDE\SFML\GRAPHICS\VERTEXARRAY.HPP
D:\POLIBUDA\PROGRAMOWANIE\_GITLAB\KLOSLABSGAMINGCPPSFML\CPP-GAME-SFML2\LIBS\SFML\INCLUDE\SFML\GRAPHICS\VERTEX.HPP
D:\POLIBUDA\PROGRAMOWANIE\_GITLAB\KLOSLABSGAMINGCPPSFML\CPP-GAME-SFML2\LIBS\SFML\INCLUDE\SFML\GRAPHICS\COLOR.HPP
D:\POLIBUDA\PROGRAMOWANIE\_GITLAB\KLOSLABSGAMINGCPPSFML\CPP-GAME-SFML2\LIBS\SFML\INCLUDE\SFML\GRAPHICS\PRIMITIVETYPE.HPP
D:\POLIBUDA\PROGRAMOWANIE\_GITLAB\KLOSLABSGAMINGCPPSFML\CPP-GAME-SFML2\LIBS\SFML\INCLUDE\SFML\GRAPHICS\CONVEXSHAPE.HPP
D:\POLIBUDA\PROGRAMOWANIE\_GITLAB\KLOSLABSGAMINGCPPSFML\CPP-GAME-SFML2\LIBS\SFML\INCLUDE\SFML\GRAPHICS\FONT.HPP
D:\POLIBUDA\PROGRAMOWANIE\_GITLAB\KLOSLABSGAMINGCPPSFML\CPP-GAME-SFML2\LIBS\SFML\INCLUDE\SFML\GRAPHICS\GLYPH.HPP
D:\POLIBUDA\PROGRAMOWANIE\_GITLAB\KLOSLABSGAMINGCPPSFML\CPP-GAME-SFML2\LIBS\SFML\INCLUDE\SFML\GRAPHICS\TEXTURE.HPP
D:\POLIBUDA\PROGRAMOWANIE\_GITLAB\KLOSLABSGAMINGCPPSFML\CPP-GAME-SFML2\LIBS\SFML\INCLUDE\SFML\GRAPHICS\IMAGE.HPP
D:\PROGRAMY\VISUAL2K15\VC\INCLUDE\MAP
D:\PROGRAMY\VISUAL2K15\VC\INCLUDE\TUPLE
D:\PROGRAMY\VISUAL2K15\VC\INCLUDE\XTREE
D:\POLIBUDA\PROGRAMOWANIE\_GITLAB\KLOSLABSGAMINGCPPSFML\CPP-GAME-SFML2\LIBS\SFML\INCLUDE\SFML\GRAPHICS\RECTANGLESHAPE.HPP
D:\POLIBUDA\PROGRAMOWANIE\_GITLAB\KLOSLABSGAMINGCPPSFML\CPP-GAME-SFML2\LIBS\SFML\INCLUDE\SFML\GRAPHICS\RENDERTARGET.HPP
D:\POLIBUDA\PROGRAMOWANIE\_GITLAB\KLOSLABSGAMINGCPPSFML\CPP-GAME-SFML2\LIBS\SFML\INCLUDE\SFML\GRAPHICS\VIEW.HPP
D:\POLIBUDA\PROGRAMOWANIE\_GITLAB\KLOSLABSGAMINGCPPSFML\CPP-GAME-SFML2\LIBS\SFML\INCLUDE\SFML\GRAPHICS\RENDERTEXTURE.HPP
D:\POLIBUDA\PROGRAMOWANIE\_GITLAB\KLOSLABSGAMINGCPPSFML\CPP-GAME-SFML2\LIBS\SFML\INCLUDE\SFML\GRAPHICS\RENDERWINDOW.HPP
D:\POLIBUDA\PROGRAMOWANIE\_GITLAB\KLOSLABSGAMINGCPPSFML\CPP-GAME-SFML2\LIBS\SFML\INCLUDE\SFML\GRAPHICS\SHADER.HPP
D:\POLIBUDA\PROGRAMOWANIE\_GITLAB\KLOSLABSGAMINGCPPSFML\CPP-GAME-SFML2\LIBS\SFML\INCLUDE\SFML\GRAPHICS\SPRITE.HPP
D:\POLIBUDA\PROGRAMOWANIE\_GITLAB\KLOSLABSGAMINGCPPSFML\CPP-GAME-SFML2\LIBS\SFML\INCLUDE\SFML\GRAPHICS\TEXT.HPP
D:\POLIBUDA\PROGRAMOWANIE\_GITLAB\KLOSLABSGAMINGCPPSFML\CPP-GAME-SFML2\LIBS\SFML\INCLUDE\SFML\AUDIO.HPP
D:\POLIBUDA\PROGRAMOWANIE\_GITLAB\KLOSLABSGAMINGCPPSFML\CPP-GAME-SFML2\LIBS\SFML\INCLUDE\SFML\AUDIO\INPUTSOUNDFILE.HPP
D:\POLIBUDA\PROGRAMOWANIE\_GITLAB\KLOSLABSGAMINGCPPSFML\CPP-GAME-SFML2\LIBS\SFML\INCLUDE\SFML\AUDIO\EXPORT.HPP
D:\POLIBUDA\PROGRAMOWANIE\_GITLAB\KLOSLABSGAMINGCPPSFML\CPP-GAME-SFML2\LIBS\SFML\INCLUDE\SFML\AUDIO\LISTENER.HPP
D:\POLIBUDA\PROGRAMOWANIE\_GITLAB\KLOSLABSGAMINGCPPSFML\CPP-GAME-SFML2\LIBS\SFML\INCLUDE\SFML\AUDIO\MUSIC.HPP
D:\POLIBUDA\PROGRAMOWANIE\_GITLAB\KLOSLABSGAMINGCPPSFML\CPP-GAME-SFML2\LIBS\SFML\INCLUDE\SFML\AUDIO\SOUNDSTREAM.HPP
D:\POLIBUDA\PROGRAMOWANIE\_GITLAB\KLOSLABSGAMINGCPPSFML\CPP-GAME-SFML2\LIBS\SFML\INCLUDE\SFML\AUDIO\SOUNDSOURCE.HPP
D:\POLIBUDA\PROGRAMOWANIE\_GITLAB\KLOSLABSGAMINGCPPSFML\CPP-GAME-SFML2\LIBS\SFML\INCLUDE\SFML\AUDIO\ALRESOURCE.HPP
D:\POLIBUDA\PROGRAMOWANIE\_GITLAB\KLOSLABSGAMINGCPPSFML\CPP-GAME-SFML2\LIBS\SFML\INCLUDE\SFML\AUDIO\OUTPUTSOUNDFILE.HPP
D:\POLIBUDA\PROGRAMOWANIE\_GITLAB\KLOSLABSGAMINGCPPSFML\CPP-GAME-SFML2\LIBS\SFML\INCLUDE\SFML\AUDIO\SOUND.HPP
D:\POLIBUDA\PROGRAMOWANIE\_GITLAB\KLOSLABSGAMINGCPPSFML\CPP-GAME-SFML2\LIBS\SFML\INCLUDE\SFML\AUDIO\SOUNDBUFFER.HPP
D:\PROGRAMY\VISUAL2K15\VC\INCLUDE\SET
D:\POLIBUDA\PROGRAMOWANIE\_GITLAB\KLOSLABSGAMINGCPPSFML\CPP-GAME-SFML2\LIBS\SFML\INCLUDE\SFML\AUDIO\SOUNDBUFFERRECORDER.HPP
D:\POLIBUDA\PROGRAMOWANIE\_GITLAB\KLOSLABSGAMINGCPPSFML\CPP-GAME-SFML2\LIBS\SFML\INCLUDE\SFML\AUDIO\SOUNDRECORDER.HPP
D:\POLIBUDA\PROGRAMOWANIE\_GITLAB\KLOSLABSGAMINGCPPSFML\CPP-GAME-SFML2\LIBS\SFML\INCLUDE\SFML\AUDIO\SOUNDFILEFACTORY.HPP
D:\POLIBUDA\PROGRAMOWANIE\_GITLAB\KLOSLABSGAMINGCPPSFML\CPP-GAME-SFML2\LIBS\SFML\INCLUDE\SFML\AUDIO\SOUNDFILEFACTORY.INL
D:\POLIBUDA\PROGRAMOWANIE\_GITLAB\KLOSLABSGAMINGCPPSFML\CPP-GAME-SFML2\LIBS\SFML\INCLUDE\SFML\AUDIO\SOUNDFILEREADER.HPP
D:\POLIBUDA\PROGRAMOWANIE\_GITLAB\KLOSLABSGAMINGCPPSFML\CPP-GAME-SFML2\LIBS\SFML\INCLUDE\SFML\AUDIO\SOUNDFILEWRITER.HPP
D:\POLIBUDA\PROGRAMOWANIE\_GITLAB\KLOSLABSGAMINGCPPSFML\CPP-GAME-SFML2\SFML TEST\CLASSESDECLARATIONS.H
D:\POLIBUDA\PROGRAMOWANIE\_GITLAB\KLOSLABSGAMINGCPPSFML\CPP-GAME-SFML2\SFML TEST\FUNCTIONS.H
D:\POLIBUDA\PROGRAMOWANIE\_GITLAB\KLOSLABSGAMINGCPPSFML\CPP-GAME-SFML2\SFML TEST\GAMESTAGE.H
^D:\POLIBUDA\PROGRAMOWANIE\_GITLAB\KLOSLABSGAMINGCPPSFML\CPP-GAME-SFML2\SFML TEST\MAIN.CPP
D:\POLIBUDA\PROGRAMOWANIE\_GITLAB\KLOSLABSGAMINGCPPSFML\CPP-GAME-SFML2\SFML TEST\LIBSANDDECLARATIONS.H
D:\PROGRAMY\VISUAL2K15\VC\INCLUDE\IOSTREAM
D:\PROGRAMY\VISUAL2K15\VC\INCLUDE\ISTREAM
D:\PROGRAMY\VISUAL2K15\VC\INCLUDE\OSTREAM
D:\PROGRAMY\VISUAL2K15\VC\INCLUDE\IOS
D:\PROGRAMY\VISUAL2K15\VC\INCLUDE\XLOCNUM
D:\PROGRAMY\VISUAL2K15\VC\INCLUDE\CLIMITS
D:\PROGRAMY\VISUAL2K15\VC\INCLUDE\YVALS.H
D:\PROGRAMY\VISUAL2K15\VC\INCLUDE\XKEYCHECK.H
D:\PROGRAMY\VISUAL2K15\VC\INCLUDE\CRTDEFS.H
D:\PROGRAMY\VISUAL2K15\VC\INCLUDE\VCRUNTIME.H
D:\PROGRAMY\VISUAL2K15\VC\INCLUDE\SAL.H
D:\PROGRAMY\VISUAL2K15\VC\INCLUDE\CONCURRENCYSAL.H
D:\PROGRAMY\VISUAL2K15\VC\INCLUDE\VADEFS.H
C:\PROGRAM FILES (X86)\WINDOWS KITS\10\INCLUDE\10.0.10240.0\UCRT\CORECRT.H
D:\PROGRAMY\VISUAL2K15\VC\INCLUDE\USE_ANSI.H
D:\PROGRAMY\VISUAL2K15\VC\INCLUDE\LIMITS.H
D:\PROGRAMY\VISUAL2K15\VC\INCLUDE\CMATH
C:\PROGRAM FILES (X86)\WINDOWS KITS\10\INCLUDE\10.0.10240.0\UCRT\MATH.H
D:\PROGRAMY\VISUAL2K15\VC\INCLUDE\XTGMATH.H
D:\PROGRAMY\VISUAL2K15\VC\INCLUDE\XTR1COMMON
D:\PROGRAMY\VISUAL2K15\VC\INCLUDE\CSTDLIB
C:\PROGRAM FILES (X86)\WINDOWS KITS\10\INCLUDE\10.0.10240.0\UCRT\STDLIB.H
C:\PROGRAM FILES (X86)\WINDOWS KITS\10\INCLUDE\10.0.10240.0\UCRT\CORECRT_MALLOC.H
C:\PROGRAM FILES (X86)\WINDOWS KITS\10\INCLUDE\10.0.10240.0\UCRT\CORECRT_SEARCH.H
C:\PROGRAM FILES (X86)\WINDOWS KITS\10\INCLUDE\10.0.10240.0\UCRT\STDDEF.H
C:\PROGRAM FILES (X86)\WINDOWS KITS\10\INCLUDE\10.0.10240.0\UCRT\CORECRT_WSTDLIB.H
D:\PROGRAMY\VISUAL2K15\VC\INCLUDE\CSTDIO
C:\PROGRAM FILES (X86)\WINDOWS KITS\10\INCLUDE\10.0.10240.0\UCRT\STDIO.H
C:\PROGRAM FILES (X86)\WINDOWS KITS\10\INCLUDE\10.0.10240.0\UCRT\CORECRT_WSTDIO.H
C:\PROGRAM FILES (X86)\WINDOWS KITS\10\INCLUDE\10.0.10240.0\UCRT\CORECRT_STDIO_CONFIG.H
D:\PROGRAMY\VISUAL2K15\VC\INCLUDE\STREAMBUF
D:\PROGRAMY\VISUAL2K15\VC\INCLUDE\XIOSBASE
D:\PROGRAMY\VISUAL2K15\VC\INCLUDE\XLOCALE
D:\PROGRAMY\VISUAL2K15\VC\INCLUDE\CSTRING
C:\PROGRAM FILES (X86)\WINDOWS KITS\10\INCLUDE\10.0.10240.0\UCRT\STRING.H
C:\PROGRAM FILES (X86)\WINDOWS KITS\10\INCLUDE\10.0.10240.0\UCRT\CORECRT_MEMORY.H
C:\PROGRAM FILES (X86)\WINDOWS KITS\10\INCLUDE\10.0.10240.0\UCRT\CORECRT_MEMCPY_S.H
C:\PROGRAM FILES (X86)\WINDOWS KITS\10\INCLUDE\10.0.10240.0\UCRT\ERRNO.H
D:\PROGRAMY\VISUAL2K15\VC\INCLUDE\VCRUNTIME_STRING.H
C:\PROGRAM FILES (X86)\WINDOWS KITS\10\INCLUDE\10.0.10240.0\UCRT\CORECRT_WSTRING.H
D:\PROGRAMY\VISUAL2K15\VC\INCLUDE\STDEXCEPT
D:\PROGRAMY\VISUAL2K15\VC\INCLUDE\EXCEPTION
D:\PROGRAMY\VISUAL2K15\VC\INCLUDE\TYPE_TRAITS
D:\PROGRAMY\VISUAL2K15\VC\INCLUDE\XSTDDEF
D:\PROGRAMY\VISUAL2K15\VC\INCLUDE\CSTDDEF
D:\PROGRAMY\VISUAL2K15\VC\INCLUDE\INITIALIZER_LIST
C:\PROGRAM FILES (X86)\WINDOWS KITS\10\INCLUDE\10.0.10240.0\UCRT\MALLOC.H
D:\PROGRAMY\VISUAL2K15\VC\INCLUDE\VCRUNTIME_EXCEPTION.H
D:\PROGRAMY\VISUAL2K15\VC\INCLUDE\EH.H
C:\PROGRAM FILES (X86)\WINDOWS KITS\10\INCLUDE\10.0.10240.0\UCRT\CORECRT_TERMINATE.H
D:\PROGRAMY\VISUAL2K15\VC\INCLUDE\XSTRING
D:\PROGRAMY\VISUAL2K15\VC\INCLUDE\XMEMORY0
D:\PROGRAMY\VISUAL2K15\VC\INCLUDE\CSTDINT
D:\PROGRAMY\VISUAL2K15\VC\INCLUDE\STDINT.H
D:\PROGRAMY\VISUAL2K15\VC\INCLUDE\LIMITS
D:\PROGRAMY\VISUAL2K15\VC\INCLUDE\YMATH.H
D:\PROGRAMY\VISUAL2K15\VC\INCLUDE\CFLOAT
C:\PROGRAM FILES (X86)\WINDOWS KITS\10\INCLUDE\10.0.10240.0\UCRT\FLOAT.H
D:\PROGRAMY\VISUAL2K15\VC\INCLUDE\CWCHAR
C:\PROGRAM FILES (X86)\WINDOWS KITS\10\INCLUDE\10.0.10240.0\UCRT\WCHAR.H
C:\PROGRAM FILES (X86)\WINDOWS KITS\10\INCLUDE\10.0.10240.0\UCRT\CORECRT_WCONIO.H
C:\PROGRAM FILES (X86)\WINDOWS KITS\10\INCLUDE\10.0.10240.0\UCRT\CORECRT_WCTYPE.H
C:\PROGRAM FILES (X86)\WINDOWS KITS\10\INCLUDE\10.0.10240.0\UCRT\CORECRT_WDIRECT.H
C:\PROGRAM FILES (X86)\WINDOWS KITS\10\INCLUDE\10.0.10240.0\UCRT\CORECRT_WIO.H
C:\PROGRAM FILES (X86)\WINDOWS KITS\10\INCLUDE\10.0.10240.0\UCRT\CORECRT_SHARE.H
C:\PROGRAM FILES (X86)\WINDOWS KITS\10\INCLUDE\10.0.10240.0\UCRT\CORECRT_WPROCESS.H
C:\PROGRAM FILES (X86)\WINDOWS KITS\10\INCLUDE\10.0.10240.0\UCRT\CORECRT_WTIME.H
C:\PROGRAM FILES (X86)\WINDOWS KITS\10\INCLUDE\10.0.10240.0\UCRT\SYS\STAT.H
C:\PROGRAM FILES (X86)\WINDOWS KITS\10\INCLUDE\10.0.10240.0\UCRT\SYS\TYPES.H
D:\PROGRAMY\VISUAL2K15\VC\INCLUDE\NEW
D:\PROGRAMY\VISUAL2K15\VC\INCLUDE\VCRUNTIME_NEW.H
D:\PROGRAMY\VISUAL2K15\VC\INCLUDE\XUTILITY
D:\PROGRAMY\VISUAL2K15\VC\INCLUDE\UTILITY
D:\PROGRAMY\VISUAL2K15\VC\INCLUDE\IOSFWD
C:\PROGRAM FILES (X86)\WINDOWS KITS\10\INCLUDE\10.0.10240.0\UCRT\CRTDBG.H
D:\PROGRAMY\VISUAL2K15\VC\INCLUDE\VCRUNTIME_NEW_DEBUG.H
D:\PROGRAMY\VISUAL2K15\VC\INCLUDE\XATOMIC0.H
D:\PROGRAMY\VISUAL2K15\VC\INCLUDE\INTRIN.H
D:\PROGRAMY\VISUAL2K15\VC\INCLUDE\SETJMP.H
D:\PROGRAMY\VISUAL2K15\VC\INCLUDE\IMMINTRIN.H
D:\PROGRAMY\VISUAL2K15\VC\INCLUDE\WMMINTRIN.H
D:\PROGRAMY\VISUAL2K15\VC\INCLUDE\NMMINTRIN.H
D:\PROGRAMY\VISUAL2K15\VC\INCLUDE\SMMINTRIN.H
D:\PROGRAMY\VISUAL2K15\VC\INCLUDE\TMMINTRIN.H
D:\PROGRAMY\VISUAL2K15\VC\INCLUDE\PMMINTRIN.H
D:\PROGRAMY\VISUAL2K15\VC\INCLUDE\EMMINTRIN.H
D:\PROGRAMY\VISUAL2K15\VC\INCLUDE\XMMINTRIN.H
D:\PROGRAMY\VISUAL2K15\VC\INCLUDE\MMINTRIN.H
D:\PROGRAMY\VISUAL2K15\VC\INCLUDE\AMMINTRIN.H
D:\PROGRAMY\VISUAL2K15\VC\INCLUDE\TYPEINFO
D:\PROGRAMY\VISUAL2K15\VC\INCLUDE\VCRUNTIME_TYPEINFO.H
D:\PROGRAMY\VISUAL2K15\VC\INCLUDE\XLOCINFO
D:\PROGRAMY\VISUAL2K15\VC\INCLUDE\XLOCINFO.H
C:\PROGRAM FILES (X86)\WINDOWS KITS\10\INCLUDE\10.0.10240.0\UCRT\CTYPE.H
C:\PROGRAM FILES (X86)\WINDOWS KITS\10\INCLUDE\10.0.10240.0\UCRT\LOCALE.H
D:\PROGRAMY\VISUAL2K15\VC\INCLUDE\XFACET
D:\PROGRAMY\VISUAL2K15\VC\INCLUDE\SYSTEM_ERROR
D:\PROGRAMY\VISUAL2K15\VC\INCLUDE\CERRNO
C:\PROGRAM FILES (X86)\WINDOWS KITS\10\INCLUDE\10.0.10240.0\UCRT\SHARE.H
D:\PROGRAMY\VISUAL2K15\VC\INCLUDE\MEMORY
D:\PROGRAMY\VISUAL2K15\VC\INCLUDE\XMEMORY
D:\POLIBUDA\PROGRAMOWANIE\_GITLAB\KLOSLABSGAMINGCPPSFML\CPP-GAME-SFML2\LIBS\SFML\INCLUDE\SFML\GRAPHICS.HPP
D:\POLIBUDA\PROGRAMOWANIE\_GITLAB\KLOSLABSGAMINGCPPSFML\CPP-GAME-SFML2\LIBS\SFML\INCLUDE\SFML\WINDOW.HPP
D:\POLIBUDA\PROGRAMOWANIE\_GITLAB\KLOSLABSGAMINGCPPSFML\CPP-GAME-SFML2\LIBS\SFML\INCLUDE\SFML\SYSTEM.HPP
D:\POLIBUDA\PROGRAMOWANIE\_GITLAB\KLOSLABSGAMINGCPPSFML\CPP-GAME-SFML2\LIBS\SFML\INCLUDE\SFML\CONFIG.HPP
D:\POLIBUDA\PROGRAMOWANIE\_GITLAB\KLOSLABSGAMINGCPPSFML\CPP-GAME-SFML2\LIBS\SFML\INCLUDE\SFML\SYSTEM\CLOCK.HPP
D:\POLIBUDA\PROGRAMOWANIE\_GITLAB\KLOSLABSGAMINGCPPSFML\CPP-GAME-SFML2\LIBS\SFML\INCLUDE\SFML\SYSTEM\EXPORT.HPP
D:\POLIBUDA\PROGRAMOWANIE\_GITLAB\KLOSLABSGAMINGCPPSFML\CPP-GAME-SFML2\LIBS\SFML\INCLUDE\SFML\SYSTEM\TIME.HPP
D:\POLIBUDA\PROGRAMOWANIE\_GITLAB\KLOSLABSGAMINGCPPSFML\CPP-GAME-SFML2\LIBS\SFML\INCLUDE\SFML\SYSTEM\ERR.HPP
D:\POLIBUDA\PROGRAMOWANIE\_GITLAB\KLOSLABSGAMINGCPPSFML\CPP-GAME-SFML2\LIBS\SFML\INCLUDE\SFML\SYSTEM\FILEINPUTSTREAM.HPP
D:\POLIBUDA\PROGRAMOWANIE\_GITLAB\KLOSLABSGAMINGCPPSFML\CPP-GAME-SFML2\LIBS\SFML\INCLUDE\SFML\SYSTEM\INPUTSTREAM.HPP
D:\POLIBUDA\PROGRAMOWANIE\_GITLAB\KLOSLABSGAMINGCPPSFML\CPP-GAME-SFML2\LIBS\SFML\INCLUDE\SFML\SYSTEM\NONCOPYABLE.HPP
D:\PROGRAMY\VISUAL2K15\VC\INCLUDE\STRING
D:\POLIBUDA\PROGRAMOWANIE\_GITLAB\KLOSLABSGAMINGCPPSFML\CPP-GAME-SFML2\LIBS\SFML\INCLUDE\SFML\SYSTEM\LOCK.HPP
D:\POLIBUDA\PROGRAMOWANIE\_GITLAB\KLOSLABSGAMINGCPPSFML\CPP-GAME-SFML2\LIBS\SFML\INCLUDE\SFML\SYSTEM\MEMORYINPUTSTREAM.HPP
D:\POLIBUDA\PROGRAMOWANIE\_GITLAB\KLOSLABSGAMINGCPPSFML\CPP-GAME-SFML2\LIBS\SFML\INCLUDE\SFML\SYSTEM\MUTEX.HPP
D:\POLIBUDA\PROGRAMOWANIE\_GITLAB\KLOSLABSGAMINGCPPSFML\CPP-GAME-SFML2\LIBS\SFML\INCLUDE\SFML\SYSTEM\SLEEP.HPP
D:\POLIBUDA\PROGRAMOWANIE\_GITLAB\KLOSLABSGAMINGCPPSFML\CPP-GAME-SFML2\LIBS\SFML\INCLUDE\SFML\SYSTEM\STRING.HPP
D:\POLIBUDA\PROGRAMOWANIE\_GITLAB\KLOSLABSGAMINGCPPSFML\CPP-GAME-SFML2\LIBS\SFML\INCLUDE\SFML\SYSTEM\UTF.HPP
D:\PROGRAMY\VISUAL2K15\VC\INCLUDE\ALGORITHM
D:\PROGRAMY\VISUAL2K15\VC\INCLUDE\LOCALE
D:\PROGRAMY\VISUAL2K15\VC\INCLUDE\XLOCBUF
D:\PROGRAMY\VISUAL2K15\VC\INCLUDE\XLOCMES
D:\PROGRAMY\VISUAL2K15\VC\INCLUDE\XLOCMON
D:\PROGRAMY\VISUAL2K15\VC\INCLUDE\XLOCTIME
D:\PROGRAMY\VISUAL2K15\VC\INCLUDE\CTIME
C:\PROGRAM FILES (X86)\WINDOWS KITS\10\INCLUDE\10.0.10240.0\UCRT\TIME.H
D:\POLIBUDA\PROGRAMOWANIE\_GITLAB\KLOSLABSGAMINGCPPSFML\CPP-GAME-SFML2\LIBS\SFML\INCLUDE\SFML\SYSTEM\UTF.INL
D:\POLIBUDA\PROGRAMOWANIE\_GITLAB\KLOSLABSGAMINGCPPSFML\CPP-GAME-SFML2\LIBS\SFML\INCLUDE\SFML\SYSTEM\STRING.INL
D:\POLIBUDA\PROGRAMOWANIE\_GITLAB\KLOSLABSGAMINGCPPSFML\CPP-GAME-SFML2\LIBS\SFML\INCLUDE\SFML\SYSTEM\THREAD.HPP
D:\POLIBUDA\PROGRAMOWANIE\_GITLAB\KLOSLABSGAMINGCPPSFML\CPP-GAME-SFML2\LIBS\SFML\INCLUDE\SFML\SYSTEM\THREAD.INL
D:\POLIBUDA\PROGRAMOWANIE\_GITLAB\KLOSLABSGAMINGCPPSFML\CPP-GAME-SFML2\LIBS\SFML\INCLUDE\SFML\SYSTEM\THREADLOCAL.HPP
D:\POLIBUDA\PROGRAMOWANIE\_GITLAB\KLOSLABSGAMINGCPPSFML\CPP-GAME-SFML2\LIBS\SFML\INCLUDE\SFML\SYSTEM\THREADLOCALPTR.HPP
D:\POLIBUDA\PROGRAMOWANIE\_GITLAB\KLOSLABSGAMINGCPPSFML\CPP-GAME-SFML2\LIBS\SFML\INCLUDE\SFML\SYSTEM\THREADLOCALPTR.INL
D:\POLIBUDA\PROGRAMOWANIE\_GITLAB\KLOSLABSGAMINGCPPSFML\CPP-GAME-SFML2\LIBS\SFML\INCLUDE\SFML\SYSTEM\VECTOR2.HPP
D:\POLIBUDA\PROGRAMOWANIE\_GITLAB\KLOSLABSGAMINGCPPSFML\CPP-GAME-SFML2\LIBS\SFML\INCLUDE\SFML\SYSTEM\VECTOR2.INL
D:\POLIBUDA\PROGRAMOWANIE\_GITLAB\KLOSLABSGAMINGCPPSFML\CPP-GAME-SFML2\LIBS\SFML\INCLUDE\SFML\SYSTEM\VECTOR3.HPP
D:\POLIBUDA\PROGRAMOWANIE\_GITLAB\KLOSLABSGAMINGCPPSFML\CPP-GAME-SFML2\LIBS\SFML\INCLUDE\SFML\SYSTEM\VECTOR3.INL
D:\POLIBUDA\PROGRAMOWANIE\_GITLAB\KLOSLABSGAMINGCPPSFML\CPP-GAME-SFML2\LIBS\SFML\INCLUDE\SFML\WINDOW\CONTEXT.HPP
D:\POLIBUDA\PROGRAMOWANIE\_GITLAB\KLOSLABSGAMINGCPPSFML\CPP-GAME-SFML2\LIBS\SFML\INCLUDE\SFML\WINDOW\EXPORT.HPP
D:\POLIBUDA\PROGRAMOWANIE\_GITLAB\KLOSLABSGAMINGCPPSFML\CPP-GAME-SFML2\LIBS\SFML\INCLUDE\SFML\WINDOW\GLRESOURCE.HPP
D:\POLIBUDA\PROGRAMOWANIE\_GITLAB\KLOSLABSGAMINGCPPSFML\CPP-GAME-SFML2\LIBS\SFML\INCLUDE\SFML\WINDOW\CONTEXTSETTINGS.HPP
D:\POLIBUDA\PROGRAMOWANIE\_GITLAB\KLOSLABSGAMINGCPPSFML\CPP-GAME-SFML2\LIBS\SFML\INCLUDE\SFML\WINDOW\EVENT.HPP
D:\POLIBUDA\PROGRAMOWANIE\_GITLAB\KLOSLABSGAMINGCPPSFML\CPP-GAME-SFML2\LIBS\SFML\INCLUDE\SFML\WINDOW\JOYSTICK.HPP
D:\POLIBUDA\PROGRAMOWANIE\_GITLAB\KLOSLABSGAMINGCPPSFML\CPP-GAME-SFML2\LIBS\SFML\INCLUDE\SFML\WINDOW\KEYBOARD.HPP
D:\POLIBUDA\PROGRAMOWANIE\_GITLAB\KLOSLABSGAMINGCPPSFML\CPP-GAME-SFML2\LIBS\SFML\INCLUDE\SFML\WINDOW\MOUSE.HPP
D:\POLIBUDA\PROGRAMOWANIE\_GITLAB\KLOSLABSGAMINGCPPSFML\CPP-GAME-SFML2\LIBS\SFML\INCLUDE\SFML\WINDOW\SENSOR.HPP
D:\POLIBUDA\PROGRAMOWANIE\_GITLAB\KLOSLABSGAMINGCPPSFML\CPP-GAME-SFML2\LIBS\SFML\INCLUDE\SFML\WINDOW\TOUCH.HPP
D:\POLIBUDA\PROGRAMOWANIE\_GITLAB\KLOSLABSGAMINGCPPSFML\CPP-GAME-SFML2\LIBS\SFML\INCLUDE\SFML\WINDOW\VIDEOMODE.HPP
D:\PROGRAMY\VISUAL2K15\VC\INCLUDE\VECTOR
D:\POLIBUDA\PROGRAMOWANIE\_GITLAB\KLOSLABSGAMINGCPPSFML\CPP-GAME-SFML2\LIBS\SFML\INCLUDE\SFML\WINDOW\WINDOW.HPP
D:\POLIBUDA\PROGRAMOWANIE\_GITLAB\KLOSLABSGAMINGCPPSFML\CPP-GAME-SFML2\LIBS\SFML\INCLUDE\SFML\WINDOW\WINDOWHANDLE.HPP
D:\POLIBUDA\PROGRAMOWANIE\_GITLAB\KLOSLABSGAMINGCPPSFML\CPP-GAME-SFML2\LIBS\SFML\INCLUDE\SFML\WINDOW\WINDOWSTYLE.HPP
D:\POLIBUDA\PROGRAMOWANIE\_GITLAB\KLOSLABSGAMINGCPPSFML\CPP-GAME-SFML2\LIBS\SFML\INCLUDE\SFML\GRAPHICS\BLENDMODE.HPP
D:\POLIBUDA\PROGRAMOWANIE\_GITLAB\KLOSLABSGAMINGCPPSFML\CPP-GAME-SFML2\LIBS\SFML\INCLUDE\SFML\GRAPHICS\EXPORT.HPP
D:\POLIBUDA\PROGRAMOWANIE\_GITLAB\KLOSLABSGAMINGCPPSFML\CPP-GAME-SFML2\LIBS\SFML\INCLUDE\SFML\GRAPHICS\CIRCLESHAPE.HPP
D:\POLIBUDA\PROGRAMOWANIE\_GITLAB\KLOSLABSGAMINGCPPSFML\CPP-GAME-SFML2\LIBS\SFML\INCLUDE\SFML\GRAPHICS\SHAPE.HPP
D:\POLIBUDA\PROGRAMOWANIE\_GITLAB\KLOSLABSGAMINGCPPSFML\CPP-GAME-SFML2\LIBS\SFML\INCLUDE\SFML\GRAPHICS\DRAWABLE.HPP
D:\POLIBUDA\PROGRAMOWANIE\_GITLAB\KLOSLABSGAMINGCPPSFML\CPP-GAME-SFML2\LIBS\SFML\INCLUDE\SFML\GRAPHICS\RENDERSTATES.HPP
D:\POLIBUDA\PROGRAMOWANIE\_GITLAB\KLOSLABSGAMINGCPPSFML\CPP-GAME-SFML2\LIBS\SFML\INCLUDE\SFML\GRAPHICS\TRANSFORM.HPP
D:\POLIBUDA\PROGRAMOWANIE\_GITLAB\KLOSLABSGAMINGCPPSFML\CPP-GAME-SFML2\LIBS\SFML\INCLUDE\SFML\GRAPHICS\RECT.HPP
D:\POLIBUDA\PROGRAMOWANIE\_GITLAB\KLOSLABSGAMINGCPPSFML\CPP-GAME-SFML2\LIBS\SFML\INCLUDE\SFML\GRAPHICS\RECT.INL
D:\POLIBUDA\PROGRAMOWANIE\_GITLAB\KLOSLABSGAMINGCPPSFML\CPP-GAME-SFML2\LIBS\SFML\INCLUDE\SFML\GRAPHICS\TRANSFORMABLE.HPP
D:\POLIBUDA\PROGRAMOWANIE\_GITLAB\KLOSLABSGAMINGCPPSFML\CPP-GAME-SFML2\LIBS\SFML\INCLUDE\SFML\GRAPHICS\VERTEXARRAY.HPP
D:\POLIBUDA\PROGRAMOWANIE\_GITLAB\KLOSLABSGAMINGCPPSFML\CPP-GAME-SFML2\LIBS\SFML\INCLUDE\SFML\GRAPHICS\VERTEX.HPP
D:\POLIBUDA\PROGRAMOWANIE\_GITLAB\KLOSLABSGAMINGCPPSFML\CPP-GAME-SFML2\LIBS\SFML\INCLUDE\SFML\GRAPHICS\COLOR.HPP
D:\POLIBUDA\PROGRAMOWANIE\_GITLAB\KLOSLABSGAMINGCPPSFML\CPP-GAME-SFML2\LIBS\SFML\INCLUDE\SFML\GRAPHICS\PRIMITIVETYPE.HPP
D:\POLIBUDA\PROGRAMOWANIE\_GITLAB\KLOSLABSGAMINGCPPSFML\CPP-GAME-SFML2\LIBS\SFML\INCLUDE\SFML\GRAPHICS\CONVEXSHAPE.HPP
D:\POLIBUDA\PROGRAMOWANIE\_GITLAB\KLOSLABSGAMINGCPPSFML\CPP-GAME-SFML2\LIBS\SFML\INCLUDE\SFML\GRAPHICS\FONT.HPP
D:\POLIBUDA\PROGRAMOWANIE\_GITLAB\KLOSLABSGAMINGCPPSFML\CPP-GAME-SFML2\LIBS\SFML\INCLUDE\SFML\GRAPHICS\GLYPH.HPP
D:\POLIBUDA\PROGRAMOWANIE\_GITLAB\KLOSLABSGAMINGCPPSFML\CPP-GAME-SFML2\LIBS\SFML\INCLUDE\SFML\GRAPHICS\TEXTURE.HPP
D:\POLIBUDA\PROGRAMOWANIE\_GITLAB\KLOSLABSGAMINGCPPSFML\CPP-GAME-SFML2\LIBS\SFML\INCLUDE\SFML\GRAPHICS\IMAGE.HPP
D:\PROGRAMY\VISUAL2K15\VC\INCLUDE\MAP
D:\PROGRAMY\VISUAL2K15\VC\INCLUDE\TUPLE
D:\PROGRAMY\VISUAL2K15\VC\INCLUDE\XTREE
D:\POLIBUDA\PROGRAMOWANIE\_GITLAB\KLOSLABSGAMINGCPPSFML\CPP-GAME-SFML2\LIBS\SFML\INCLUDE\SFML\GRAPHICS\RECTANGLESHAPE.HPP
D:\POLIBUDA\PROGRAMOWANIE\_GITLAB\KLOSLABSGAMINGCPPSFML\CPP-GAME-SFML2\LIBS\SFML\INCLUDE\SFML\GRAPHICS\RENDERTARGET.HPP
D:\POLIBUDA\PROGRAMOWANIE\_GITLAB\KLOSLABSGAMINGCPPSFML\CPP-GAME-SFML2\LIBS\SFML\INCLUDE\SFML\GRAPHICS\VIEW.HPP
D:\POLIBUDA\PROGRAMOWANIE\_GITLAB\KLOSLABSGAMINGCPPSFML\CPP-GAME-SFML2\LIBS\SFML\INCLUDE\SFML\GRAPHICS\RENDERTEXTURE.HPP
D:\POLIBUDA\PROGRAMOWANIE\_GITLAB\KLOSLABSGAMINGCPPSFML\CPP-GAME-SFML2\LIBS\SFML\INCLUDE\SFML\GRAPHICS\RENDERWINDOW.HPP
D:\POLIBUDA\PROGRAMOWANIE\_GITLAB\KLOSLABSGAMINGCPPSFML\CPP-GAME-SFML2\LIBS\SFML\INCLUDE\SFML\GRAPHICS\SHADER.HPP
D:\POLIBUDA\PROGRAMOWANIE\_GITLAB\KLOSLABSGAMINGCPPSFML\CPP-GAME-SFML2\LIBS\SFML\INCLUDE\SFML\GRAPHICS\SPRITE.HPP
D:\POLIBUDA\PROGRAMOWANIE\_GITLAB\KLOSLABSGAMINGCPPSFML\CPP-GAME-SFML2\LIBS\SFML\INCLUDE\SFML\GRAPHICS\TEXT.HPP
D:\POLIBUDA\PROGRAMOWANIE\_GITLAB\KLOSLABSGAMINGCPPSFML\CPP-GAME-SFML2\LIBS\SFML\INCLUDE\SFML\AUDIO.HPP
D:\POLIBUDA\PROGRAMOWANIE\_GITLAB\KLOSLABSGAMINGCPPSFML\CPP-GAME-SFML2\LIBS\SFML\INCLUDE\SFML\AUDIO\INPUTSOUNDFILE.HPP
D:\POLIBUDA\PROGRAMOWANIE\_GITLAB\KLOSLABSGAMINGCPPSFML\CPP-GAME-SFML2\LIBS\SFML\INCLUDE\SFML\AUDIO\EXPORT.HPP
D:\POLIBUDA\PROGRAMOWANIE\_GITLAB\KLOSLABSGAMINGCPPSFML\CPP-GAME-SFML2\LIBS\SFML\INCLUDE\SFML\AUDIO\LISTENER.HPP
D:\POLIBUDA\PROGRAMOWANIE\_GITLAB\KLOSLABSGAMINGCPPSFML\CPP-GAME-SFML2\LIBS\SFML\INCLUDE\SFML\AUDIO\MUSIC.HPP
D:\POLIBUDA\PROGRAMOWANIE\_GITLAB\KLOSLABSGAMINGCPPSFML\CPP-GAME-SFML2\LIBS\SFML\INCLUDE\SFML\AUDIO\SOUNDSTREAM.HPP
D:\POLIBUDA\PROGRAMOWANIE\_GITLAB\KLOSLABSGAMINGCPPSFML\CPP-GAME-SFML2\LIBS\SFML\INCLUDE\SFML\AUDIO\SOUNDSOURCE.HPP
D:\POLIBUDA\PROGRAMOWANIE\_GITLAB\KLOSLABSGAMINGCPPSFML\CPP-GAME-SFML2\LIBS\SFML\INCLUDE\SFML\AUDIO\ALRESOURCE.HPP
D:\POLIBUDA\PROGRAMOWANIE\_GITLAB\KLOSLABSGAMINGCPPSFML\CPP-GAME-SFML2\LIBS\SFML\INCLUDE\SFML\AUDIO\OUTPUTSOUNDFILE.HPP
D:\POLIBUDA\PROGRAMOWANIE\_GITLAB\KLOSLABSGAMINGCPPSFML\CPP-GAME-SFML2\LIBS\SFML\INCLUDE\SFML\AUDIO\SOUND.HPP
D:\POLIBUDA\PROGRAMOWANIE\_GITLAB\KLOSLABSGAMINGCPPSFML\CPP-GAME-SFML2\LIBS\SFML\INCLUDE\SFML\AUDIO\SOUNDBUFFER.HPP
D:\PROGRAMY\VISUAL2K15\VC\INCLUDE\SET
D:\POLIBUDA\PROGRAMOWANIE\_GITLAB\KLOSLABSGAMINGCPPSFML\CPP-GAME-SFML2\LIBS\SFML\INCLUDE\SFML\AUDIO\SOUNDBUFFERRECORDER.HPP
D:\POLIBUDA\PROGRAMOWANIE\_GITLAB\KLOSLABSGAMINGCPPSFML\CPP-GAME-SFML2\LIBS\SFML\INCLUDE\SFML\AUDIO\SOUNDRECORDER.HPP
D:\POLIBUDA\PROGRAMOWANIE\_GITLAB\KLOSLABSGAMINGCPPSFML\CPP-GAME-SFML2\LIBS\SFML\INCLUDE\SFML\AUDIO\SOUNDFILEFACTORY.HPP
D:\POLIBUDA\PROGRAMOWANIE\_GITLAB\KLOSLABSGAMINGCPPSFML\CPP-GAME-SFML2\LIBS\SFML\INCLUDE\SFML\AUDIO\SOUNDFILEFACTORY.INL
D:\POLIBUDA\PROGRAMOWANIE\_GITLAB\KLOSLABSGAMINGCPPSFML\CPP-GAME-SFML2\LIBS\SFML\INCLUDE\SFML\AUDIO\SOUNDFILEREADER.HPP
D:\POLIBUDA\PROGRAMOWANIE\_GITLAB\KLOSLABSGAMINGCPPSFML\CPP-GAME-SFML2\LIBS\SFML\INCLUDE\SFML\AUDIO\SOUNDFILEWRITER.HPP
D:\POLIBUDA\PROGRAMOWANIE\_GITLAB\KLOSLABSGAMINGCPPSFML\CPP-GAME-SFML2\SFML TEST\CLASSESDECLARATIONS.H
D:\POLIBUDA\PROGRAMOWANIE\_GITLAB\KLOSLABSGAMINGCPPSFML\CPP-GAME-SFML2\SFML TEST\FUNCTIONS.H
D:\POLIBUDA\PROGRAMOWANIE\_GITLAB\KLOSLABSGAMINGCPPSFML\CPP-GAME-SFML2\SFML TEST\MENU.H
D:\POLIBUDA\PROGRAMOWANIE\_GITLAB\KLOSLABSGAMINGCPPSFML\CPP-GAME-SFML2\SFML TEST\GAMESTAGE.H
D:\POLIBUDA\PROGRAMOWANIE\_GITLAB\KLOSLABSGAMINGCPPSFML\CPP-GAME-SFML2\SFML TEST\GAMEPLAY.H
D:\POLIBUDA\PROGRAMOWANIE\_GITLAB\KLOSLABSGAMINGCPPSFML\CPP-GAME-SFML2\SFML TEST\PLAYER.H
D:\POLIBUDA\PROGRAMOWANIE\_GITLAB\KLOSLABSGAMINGCPPSFML\CPP-GAME-SFML2\SFML TEST\ENEMY.H
^D:\POLIBUDA\PROGRAMOWANIE\_GITLAB\KLOSLABSGAMINGCPPSFML\CPP-GAME-SFML2\SFML TEST\GAMEPLAY.CPP
C:\WINDOWS\GLOBALIZATION\SORTING\SORTDEFAULT.NLS
D:\PROGRAMY\VISUAL2K15\VC\BIN\X86_AMD64\1033\CLUI.DLL
C:\WINDOWS\SYSTEM32\RSAENH.DLL
C:\WINDOWS\SYSTEM32\TZRES.DLL
D:\POLIBUDA\PROGRAMOWANIE\_GITLAB\KLOSLABSGAMINGCPPSFML\CPP-GAME-SFML2\SFML TEST\GAMEPLAY.H
D:\POLIBUDA\PROGRAMOWANIE\_GITLAB\KLOSLABSGAMINGCPPSFML\CPP-GAME-SFML2\SFML TEST\LIBSANDDECLARATIONS.H
D:\PROGRAMY\VISUAL2K15\VC\INCLUDE\IOSTREAM
D:\PROGRAMY\VISUAL2K15\VC\INCLUDE\ISTREAM
D:\PROGRAMY\VISUAL2K15\VC\INCLUDE\OSTREAM
D:\PROGRAMY\VISUAL2K15\VC\INCLUDE\IOS
D:\PROGRAMY\VISUAL2K15\VC\INCLUDE\XLOCNUM
D:\PROGRAMY\VISUAL2K15\VC\INCLUDE\CLIMITS
D:\PROGRAMY\VISUAL2K15\VC\INCLUDE\YVALS.H
D:\PROGRAMY\VISUAL2K15\VC\INCLUDE\XKEYCHECK.H
D:\PROGRAMY\VISUAL2K15\VC\INCLUDE\CRTDEFS.H
D:\PROGRAMY\VISUAL2K15\VC\INCLUDE\VCRUNTIME.H
D:\PROGRAMY\VISUAL2K15\VC\INCLUDE\SAL.H
D:\PROGRAMY\VISUAL2K15\VC\INCLUDE\CONCURRENCYSAL.H
D:\PROGRAMY\VISUAL2K15\VC\INCLUDE\VADEFS.H
C:\PROGRAM FILES (X86)\WINDOWS KITS\10\INCLUDE\10.0.10240.0\UCRT\CORECRT.H
D:\PROGRAMY\VISUAL2K15\VC\INCLUDE\USE_ANSI.H
D:\PROGRAMY\VISUAL2K15\VC\INCLUDE\LIMITS.H
D:\PROGRAMY\VISUAL2K15\VC\INCLUDE\CMATH
C:\PROGRAM FILES (X86)\WINDOWS KITS\10\INCLUDE\10.0.10240.0\UCRT\MATH.H
D:\PROGRAMY\VISUAL2K15\VC\INCLUDE\XTGMATH.H
D:\PROGRAMY\VISUAL2K15\VC\INCLUDE\XTR1COMMON
D:\PROGRAMY\VISUAL2K15\VC\INCLUDE\CSTDLIB
C:\PROGRAM FILES (X86)\WINDOWS KITS\10\INCLUDE\10.0.10240.0\UCRT\STDLIB.H
C:\PROGRAM FILES (X86)\WINDOWS KITS\10\INCLUDE\10.0.10240.0\UCRT\CORECRT_MALLOC.H
C:\PROGRAM FILES (X86)\WINDOWS KITS\10\INCLUDE\10.0.10240.0\UCRT\CORECRT_SEARCH.H
C:\PROGRAM FILES (X86)\WINDOWS KITS\10\INCLUDE\10.0.10240.0\UCRT\STDDEF.H
C:\PROGRAM FILES (X86)\WINDOWS KITS\10\INCLUDE\10.0.10240.0\UCRT\CORECRT_WSTDLIB.H
D:\PROGRAMY\VISUAL2K15\VC\INCLUDE\CSTDIO
C:\PROGRAM FILES (X86)\WINDOWS KITS\10\INCLUDE\10.0.10240.0\UCRT\STDIO.H
C:\PROGRAM FILES (X86)\WINDOWS KITS\10\INCLUDE\10.0.10240.0\UCRT\CORECRT_WSTDIO.H
C:\PROGRAM FILES (X86)\WINDOWS KITS\10\INCLUDE\10.0.10240.0\UCRT\CORECRT_STDIO_CONFIG.H
D:\PROGRAMY\VISUAL2K15\VC\INCLUDE\STREAMBUF
D:\PROGRAMY\VISUAL2K15\VC\INCLUDE\XIOSBASE
D:\PROGRAMY\VISUAL2K15\VC\INCLUDE\XLOCALE
D:\PROGRAMY\VISUAL2K15\VC\INCLUDE\CSTRING
C:\PROGRAM FILES (X86)\WINDOWS KITS\10\INCLUDE\10.0.10240.0\UCRT\STRING.H
C:\PROGRAM FILES (X86)\WINDOWS KITS\10\INCLUDE\10.0.10240.0\UCRT\CORECRT_MEMORY.H
C:\PROGRAM FILES (X86)\WINDOWS KITS\10\INCLUDE\10.0.10240.0\UCRT\CORECRT_MEMCPY_S.H
C:\PROGRAM FILES (X86)\WINDOWS KITS\10\INCLUDE\10.0.10240.0\UCRT\ERRNO.H
D:\PROGRAMY\VISUAL2K15\VC\INCLUDE\VCRUNTIME_STRING.H
C:\PROGRAM FILES (X86)\WINDOWS KITS\10\INCLUDE\10.0.10240.0\UCRT\CORECRT_WSTRING.H
D:\PROGRAMY\VISUAL2K15\VC\INCLUDE\STDEXCEPT
D:\PROGRAMY\VISUAL2K15\VC\INCLUDE\EXCEPTION
D:\PROGRAMY\VISUAL2K15\VC\INCLUDE\TYPE_TRAITS
D:\PROGRAMY\VISUAL2K15\VC\INCLUDE\XSTDDEF
D:\PROGRAMY\VISUAL2K15\VC\INCLUDE\CSTDDEF
D:\PROGRAMY\VISUAL2K15\VC\INCLUDE\INITIALIZER_LIST
C:\PROGRAM FILES (X86)\WINDOWS KITS\10\INCLUDE\10.0.10240.0\UCRT\MALLOC.H
D:\PROGRAMY\VISUAL2K15\VC\INCLUDE\VCRUNTIME_EXCEPTION.H
D:\PROGRAMY\VISUAL2K15\VC\INCLUDE\EH.H
C:\PROGRAM FILES (X86)\WINDOWS KITS\10\INCLUDE\10.0.10240.0\UCRT\CORECRT_TERMINATE.H
D:\PROGRAMY\VISUAL2K15\VC\INCLUDE\XSTRING
D:\PROGRAMY\VISUAL2K15\VC\INCLUDE\XMEMORY0
D:\PROGRAMY\VISUAL2K15\VC\INCLUDE\CSTDINT
D:\PROGRAMY\VISUAL2K15\VC\INCLUDE\STDINT.H
D:\PROGRAMY\VISUAL2K15\VC\INCLUDE\LIMITS
D:\PROGRAMY\VISUAL2K15\VC\INCLUDE\YMATH.H
D:\PROGRAMY\VISUAL2K15\VC\INCLUDE\CFLOAT
C:\PROGRAM FILES (X86)\WINDOWS KITS\10\INCLUDE\10.0.10240.0\UCRT\FLOAT.H
D:\PROGRAMY\VISUAL2K15\VC\INCLUDE\CWCHAR
C:\PROGRAM FILES (X86)\WINDOWS KITS\10\INCLUDE\10.0.10240.0\UCRT\WCHAR.H
C:\PROGRAM FILES (X86)\WINDOWS KITS\10\INCLUDE\10.0.10240.0\UCRT\CORECRT_WCONIO.H
C:\PROGRAM FILES (X86)\WINDOWS KITS\10\INCLUDE\10.0.10240.0\UCRT\CORECRT_WCTYPE.H
C:\PROGRAM FILES (X86)\WINDOWS KITS\10\INCLUDE\10.0.10240.0\UCRT\CORECRT_WDIRECT.H
C:\PROGRAM FILES (X86)\WINDOWS KITS\10\INCLUDE\10.0.10240.0\UCRT\CORECRT_WIO.H
C:\PROGRAM FILES (X86)\WINDOWS KITS\10\INCLUDE\10.0.10240.0\UCRT\CORECRT_SHARE.H
C:\PROGRAM FILES (X86)\WINDOWS KITS\10\INCLUDE\10.0.10240.0\UCRT\CORECRT_WPROCESS.H
C:\PROGRAM FILES (X86)\WINDOWS KITS\10\INCLUDE\10.0.10240.0\UCRT\CORECRT_WTIME.H
C:\PROGRAM FILES (X86)\WINDOWS KITS\10\INCLUDE\10.0.10240.0\UCRT\SYS\STAT.H
C:\PROGRAM FILES (X86)\WINDOWS KITS\10\INCLUDE\10.0.10240.0\UCRT\SYS\TYPES.H
D:\PROGRAMY\VISUAL2K15\VC\INCLUDE\NEW
D:\PROGRAMY\VISUAL2K15\VC\INCLUDE\VCRUNTIME_NEW.H
D:\PROGRAMY\VISUAL2K15\VC\INCLUDE\XUTILITY
D:\PROGRAMY\VISUAL2K15\VC\INCLUDE\UTILITY
D:\PROGRAMY\VISUAL2K15\VC\INCLUDE\IOSFWD
C:\PROGRAM FILES (X86)\WINDOWS KITS\10\INCLUDE\10.0.10240.0\UCRT\CRTDBG.H
D:\PROGRAMY\VISUAL2K15\VC\INCLUDE\VCRUNTIME_NEW_DEBUG.H
D:\PROGRAMY\VISUAL2K15\VC\INCLUDE\XATOMIC0.H
D:\PROGRAMY\VISUAL2K15\VC\INCLUDE\INTRIN.H
D:\PROGRAMY\VISUAL2K15\VC\INCLUDE\SETJMP.H
D:\PROGRAMY\VISUAL2K15\VC\INCLUDE\IMMINTRIN.H
D:\PROGRAMY\VISUAL2K15\VC\INCLUDE\WMMINTRIN.H
D:\PROGRAMY\VISUAL2K15\VC\INCLUDE\NMMINTRIN.H
D:\PROGRAMY\VISUAL2K15\VC\INCLUDE\SMMINTRIN.H
D:\PROGRAMY\VISUAL2K15\VC\INCLUDE\TMMINTRIN.H
D:\PROGRAMY\VISUAL2K15\VC\INCLUDE\PMMINTRIN.H
D:\PROGRAMY\VISUAL2K15\VC\INCLUDE\EMMINTRIN.H
D:\PROGRAMY\VISUAL2K15\VC\INCLUDE\XMMINTRIN.H
D:\PROGRAMY\VISUAL2K15\VC\INCLUDE\MMINTRIN.H
D:\PROGRAMY\VISUAL2K15\VC\INCLUDE\AMMINTRIN.H
D:\PROGRAMY\VISUAL2K15\VC\INCLUDE\TYPEINFO
D:\PROGRAMY\VISUAL2K15\VC\INCLUDE\VCRUNTIME_TYPEINFO.H
D:\PROGRAMY\VISUAL2K15\VC\INCLUDE\XLOCINFO
D:\PROGRAMY\VISUAL2K15\VC\INCLUDE\XLOCINFO.H
C:\PROGRAM FILES (X86)\WINDOWS KITS\10\INCLUDE\10.0.10240.0\UCRT\CTYPE.H
C:\PROGRAM FILES (X86)\WINDOWS KITS\10\INCLUDE\10.0.10240.0\UCRT\LOCALE.H
D:\PROGRAMY\VISUAL2K15\VC\INCLUDE\XFACET
D:\PROGRAMY\VISUAL2K15\VC\INCLUDE\SYSTEM_ERROR
D:\PROGRAMY\VISUAL2K15\VC\INCLUDE\CERRNO
C:\PROGRAM FILES (X86)\WINDOWS KITS\10\INCLUDE\10.0.10240.0\UCRT\SHARE.H
D:\PROGRAMY\VISUAL2K15\VC\INCLUDE\MEMORY
D:\PROGRAMY\VISUAL2K15\VC\INCLUDE\XMEMORY
D:\POLIBUDA\PROGRAMOWANIE\_GITLAB\KLOSLABSGAMINGCPPSFML\CPP-GAME-SFML2\LIBS\SFML\INCLUDE\SFML\GRAPHICS.HPP
D:\POLIBUDA\PROGRAMOWANIE\_GITLAB\KLOSLABSGAMINGCPPSFML\CPP-GAME-SFML2\LIBS\SFML\INCLUDE\SFML\WINDOW.HPP
D:\POLIBUDA\PROGRAMOWANIE\_GITLAB\KLOSLABSGAMINGCPPSFML\CPP-GAME-SFML2\LIBS\SFML\INCLUDE\SFML\SYSTEM.HPP
D:\POLIBUDA\PROGRAMOWANIE\_GITLAB\KLOSLABSGAMINGCPPSFML\CPP-GAME-SFML2\LIBS\SFML\INCLUDE\SFML\CONFIG.HPP
D:\POLIBUDA\PROGRAMOWANIE\_GITLAB\KLOSLABSGAMINGCPPSFML\CPP-GAME-SFML2\LIBS\SFML\INCLUDE\SFML\SYSTEM\CLOCK.HPP
D:\POLIBUDA\PROGRAMOWANIE\_GITLAB\KLOSLABSGAMINGCPPSFML\CPP-GAME-SFML2\LIBS\SFML\INCLUDE\SFML\SYSTEM\EXPORT.HPP
D:\POLIBUDA\PROGRAMOWANIE\_GITLAB\KLOSLABSGAMINGCPPSFML\CPP-GAME-SFML2\LIBS\SFML\INCLUDE\SFML\SYSTEM\TIME.HPP
D:\POLIBUDA\PROGRAMOWANIE\_GITLAB\KLOSLABSGAMINGCPPSFML\CPP-GAME-SFML2\LIBS\SFML\INCLUDE\SFML\SYSTEM\ERR.HPP
D:\POLIBUDA\PROGRAMOWANIE\_GITLAB\KLOSLABSGAMINGCPPSFML\CPP-GAME-SFML2\LIBS\SFML\INCLUDE\SFML\SYSTEM\FILEINPUTSTREAM.HPP
D:\POLIBUDA\PROGRAMOWANIE\_GITLAB\KLOSLABSGAMINGCPPSFML\CPP-GAME-SFML2\LIBS\SFML\INCLUDE\SFML\SYSTEM\INPUTSTREAM.HPP
D:\POLIBUDA\PROGRAMOWANIE\_GITLAB\KLOSLABSGAMINGCPPSFML\CPP-GAME-SFML2\LIBS\SFML\INCLUDE\SFML\SYSTEM\NONCOPYABLE.HPP
D:\PROGRAMY\VISUAL2K15\VC\INCLUDE\STRING
D:\POLIBUDA\PROGRAMOWANIE\_GITLAB\KLOSLABSGAMINGCPPSFML\CPP-GAME-SFML2\LIBS\SFML\INCLUDE\SFML\SYSTEM\LOCK.HPP
D:\POLIBUDA\PROGRAMOWANIE\_GITLAB\KLOSLABSGAMINGCPPSFML\CPP-GAME-SFML2\LIBS\SFML\INCLUDE\SFML\SYSTEM\MEMORYINPUTSTREAM.HPP
D:\POLIBUDA\PROGRAMOWANIE\_GITLAB\KLOSLABSGAMINGCPPSFML\CPP-GAME-SFML2\LIBS\SFML\INCLUDE\SFML\SYSTEM\MUTEX.HPP
D:\POLIBUDA\PROGRAMOWANIE\_GITLAB\KLOSLABSGAMINGCPPSFML\CPP-GAME-SFML2\LIBS\SFML\INCLUDE\SFML\SYSTEM\SLEEP.HPP
D:\POLIBUDA\PROGRAMOWANIE\_GITLAB\KLOSLABSGAMINGCPPSFML\CPP-GAME-SFML2\LIBS\SFML\INCLUDE\SFML\SYSTEM\STRING.HPP
D:\POLIBUDA\PROGRAMOWANIE\_GITLAB\KLOSLABSGAMINGCPPSFML\CPP-GAME-SFML2\LIBS\SFML\INCLUDE\SFML\SYSTEM\UTF.HPP
D:\PROGRAMY\VISUAL2K15\VC\INCLUDE\ALGORITHM
D:\PROGRAMY\VISUAL2K15\VC\INCLUDE\LOCALE
D:\PROGRAMY\VISUAL2K15\VC\INCLUDE\XLOCBUF
D:\PROGRAMY\VISUAL2K15\VC\INCLUDE\XLOCMES
D:\PROGRAMY\VISUAL2K15\VC\INCLUDE\XLOCMON
D:\PROGRAMY\VISUAL2K15\VC\INCLUDE\XLOCTIME
D:\PROGRAMY\VISUAL2K15\VC\INCLUDE\CTIME
C:\PROGRAM FILES (X86)\WINDOWS KITS\10\INCLUDE\10.0.10240.0\UCRT\TIME.H
D:\POLIBUDA\PROGRAMOWANIE\_GITLAB\KLOSLABSGAMINGCPPSFML\CPP-GAME-SFML2\LIBS\SFML\INCLUDE\SFML\SYSTEM\UTF.INL
D:\POLIBUDA\PROGRAMOWANIE\_GITLAB\KLOSLABSGAMINGCPPSFML\CPP-GAME-SFML2\LIBS\SFML\INCLUDE\SFML\SYSTEM\STRING.INL
D:\POLIBUDA\PROGRAMOWANIE\_GITLAB\KLOSLABSGAMINGCPPSFML\CPP-GAME-SFML2\LIBS\SFML\INCLUDE\SFML\SYSTEM\THREAD.HPP
D:\POLIBUDA\PROGRAMOWANIE\_GITLAB\KLOSLABSGAMINGCPPSFML\CPP-GAME-SFML2\LIBS\SFML\INCLUDE\SFML\SYSTEM\THREAD.INL
D:\POLIBUDA\PROGRAMOWANIE\_GITLAB\KLOSLABSGAMINGCPPSFML\CPP-GAME-SFML2\LIBS\SFML\INCLUDE\SFML\SYSTEM\THREADLOCAL.HPP
D:\POLIBUDA\PROGRAMOWANIE\_GITLAB\KLOSLABSGAMINGCPPSFML\CPP-GAME-SFML2\LIBS\SFML\INCLUDE\SFML\SYSTEM\THREADLOCALPTR.HPP
D:\POLIBUDA\PROGRAMOWANIE\_GITLAB\KLOSLABSGAMINGCPPSFML\CPP-GAME-SFML2\LIBS\SFML\INCLUDE\SFML\SYSTEM\THREADLOCALPTR.INL
D:\POLIBUDA\PROGRAMOWANIE\_GITLAB\KLOSLABSGAMINGCPPSFML\CPP-GAME-SFML2\LIBS\SFML\INCLUDE\SFML\SYSTEM\VECTOR2.HPP
D:\POLIBUDA\PROGRAMOWANIE\_GITLAB\KLOSLABSGAMINGCPPSFML\CPP-GAME-SFML2\LIBS\SFML\INCLUDE\SFML\SYSTEM\VECTOR2.INL
D:\POLIBUDA\PROGRAMOWANIE\_GITLAB\KLOSLABSGAMINGCPPSFML\CPP-GAME-SFML2\LIBS\SFML\INCLUDE\SFML\SYSTEM\VECTOR3.HPP
D:\POLIBUDA\PROGRAMOWANIE\_GITLAB\KLOSLABSGAMINGCPPSFML\CPP-GAME-SFML2\LIBS\SFML\INCLUDE\SFML\SYSTEM\VECTOR3.INL
D:\POLIBUDA\PROGRAMOWANIE\_GITLAB\KLOSLABSGAMINGCPPSFML\CPP-GAME-SFML2\LIBS\SFML\INCLUDE\SFML\WINDOW\CONTEXT.HPP
D:\POLIBUDA\PROGRAMOWANIE\_GITLAB\KLOSLABSGAMINGCPPSFML\CPP-GAME-SFML2\LIBS\SFML\INCLUDE\SFML\WINDOW\EXPORT.HPP
D:\POLIBUDA\PROGRAMOWANIE\_GITLAB\KLOSLABSGAMINGCPPSFML\CPP-GAME-SFML2\LIBS\SFML\INCLUDE\SFML\WINDOW\GLRESOURCE.HPP
D:\POLIBUDA\PROGRAMOWANIE\_GITLAB\KLOSLABSGAMINGCPPSFML\CPP-GAME-SFML2\LIBS\SFML\INCLUDE\SFML\WINDOW\CONTEXTSETTINGS.HPP
D:\POLIBUDA\PROGRAMOWANIE\_GITLAB\KLOSLABSGAMINGCPPSFML\CPP-GAME-SFML2\LIBS\SFML\INCLUDE\SFML\WINDOW\EVENT.HPP
D:\POLIBUDA\PROGRAMOWANIE\_GITLAB\KLOSLABSGAMINGCPPSFML\CPP-GAME-SFML2\LIBS\SFML\INCLUDE\SFML\WINDOW\JOYSTICK.HPP
D:\POLIBUDA\PROGRAMOWANIE\_GITLAB\KLOSLABSGAMINGCPPSFML\CPP-GAME-SFML2\LIBS\SFML\INCLUDE\SFML\WINDOW\KEYBOARD.HPP
D:\POLIBUDA\PROGRAMOWANIE\_GITLAB\KLOSLABSGAMINGCPPSFML\CPP-GAME-SFML2\LIBS\SFML\INCLUDE\SFML\WINDOW\MOUSE.HPP
D:\POLIBUDA\PROGRAMOWANIE\_GITLAB\KLOSLABSGAMINGCPPSFML\CPP-GAME-SFML2\LIBS\SFML\INCLUDE\SFML\WINDOW\SENSOR.HPP
D:\POLIBUDA\PROGRAMOWANIE\_GITLAB\KLOSLABSGAMINGCPPSFML\CPP-GAME-SFML2\LIBS\SFML\INCLUDE\SFML\WINDOW\TOUCH.HPP
D:\POLIBUDA\PROGRAMOWANIE\_GITLAB\KLOSLABSGAMINGCPPSFML\CPP-GAME-SFML2\LIBS\SFML\INCLUDE\SFML\WINDOW\VIDEOMODE.HPP
D:\PROGRAMY\VISUAL2K15\VC\INCLUDE\VECTOR
D:\POLIBUDA\PROGRAMOWANIE\_GITLAB\KLOSLABSGAMINGCPPSFML\CPP-GAME-SFML2\LIBS\SFML\INCLUDE\SFML\WINDOW\WINDOW.HPP
D:\POLIBUDA\PROGRAMOWANIE\_GITLAB\KLOSLABSGAMINGCPPSFML\CPP-GAME-SFML2\LIBS\SFML\INCLUDE\SFML\WINDOW\WINDOWHANDLE.HPP
D:\POLIBUDA\PROGRAMOWANIE\_GITLAB\KLOSLABSGAMINGCPPSFML\CPP-GAME-SFML2\LIBS\SFML\INCLUDE\SFML\WINDOW\WINDOWSTYLE.HPP
D:\POLIBUDA\PROGRAMOWANIE\_GITLAB\KLOSLABSGAMINGCPPSFML\CPP-GAME-SFML2\LIBS\SFML\INCLUDE\SFML\GRAPHICS\BLENDMODE.HPP
D:\POLIBUDA\PROGRAMOWANIE\_GITLAB\KLOSLABSGAMINGCPPSFML\CPP-GAME-SFML2\LIBS\SFML\INCLUDE\SFML\GRAPHICS\EXPORT.HPP
D:\POLIBUDA\PROGRAMOWANIE\_GITLAB\KLOSLABSGAMINGCPPSFML\CPP-GAME-SFML2\LIBS\SFML\INCLUDE\SFML\GRAPHICS\CIRCLESHAPE.HPP
D:\POLIBUDA\PROGRAMOWANIE\_GITLAB\KLOSLABSGAMINGCPPSFML\CPP-GAME-SFML2\LIBS\SFML\INCLUDE\SFML\GRAPHICS\SHAPE.HPP
D:\POLIBUDA\PROGRAMOWANIE\_GITLAB\KLOSLABSGAMINGCPPSFML\CPP-GAME-SFML2\LIBS\SFML\INCLUDE\SFML\GRAPHICS\DRAWABLE.HPP
D:\POLIBUDA\PROGRAMOWANIE\_GITLAB\KLOSLABSGAMINGCPPSFML\CPP-GAME-SFML2\LIBS\SFML\INCLUDE\SFML\GRAPHICS\RENDERSTATES.HPP
D:\POLIBUDA\PROGRAMOWANIE\_GITLAB\KLOSLABSGAMINGCPPSFML\CPP-GAME-SFML2\LIBS\SFML\INCLUDE\SFML\GRAPHICS\TRANSFORM.HPP
D:\POLIBUDA\PROGRAMOWANIE\_GITLAB\KLOSLABSGAMINGCPPSFML\CPP-GAME-SFML2\LIBS\SFML\INCLUDE\SFML\GRAPHICS\RECT.HPP
D:\POLIBUDA\PROGRAMOWANIE\_GITLAB\KLOSLABSGAMINGCPPSFML\CPP-GAME-SFML2\LIBS\SFML\INCLUDE\SFML\GRAPHICS\RECT.INL
D:\POLIBUDA\PROGRAMOWANIE\_GITLAB\KLOSLABSGAMINGCPPSFML\CPP-GAME-SFML2\LIBS\SFML\INCLUDE\SFML\GRAPHICS\TRANSFORMABLE.HPP
D:\POLIBUDA\PROGRAMOWANIE\_GITLAB\KLOSLABSGAMINGCPPSFML\CPP-GAME-SFML2\LIBS\SFML\INCLUDE\SFML\GRAPHICS\VERTEXARRAY.HPP
D:\POLIBUDA\PROGRAMOWANIE\_GITLAB\KLOSLABSGAMINGCPPSFML\CPP-GAME-SFML2\LIBS\SFML\INCLUDE\SFML\GRAPHICS\VERTEX.HPP
D:\POLIBUDA\PROGRAMOWANIE\_GITLAB\KLOSLABSGAMINGCPPSFML\CPP-GAME-SFML2\LIBS\SFML\INCLUDE\SFML\GRAPHICS\COLOR.HPP
D:\POLIBUDA\PROGRAMOWANIE\_GITLAB\KLOSLABSGAMINGCPPSFML\CPP-GAME-SFML2\LIBS\SFML\INCLUDE\SFML\GRAPHICS\PRIMITIVETYPE.HPP
D:\POLIBUDA\PROGRAMOWANIE\_GITLAB\KLOSLABSGAMINGCPPSFML\CPP-GAME-SFML2\LIBS\SFML\INCLUDE\SFML\GRAPHICS\CONVEXSHAPE.HPP
D:\POLIBUDA\PROGRAMOWANIE\_GITLAB\KLOSLABSGAMINGCPPSFML\CPP-GAME-SFML2\LIBS\SFML\INCLUDE\SFML\GRAPHICS\FONT.HPP
D:\POLIBUDA\PROGRAMOWANIE\_GITLAB\KLOSLABSGAMINGCPPSFML\CPP-GAME-SFML2\LIBS\SFML\INCLUDE\SFML\GRAPHICS\GLYPH.HPP
D:\POLIBUDA\PROGRAMOWANIE\_GITLAB\KLOSLABSGAMINGCPPSFML\CPP-GAME-SFML2\LIBS\SFML\INCLUDE\SFML\GRAPHICS\TEXTURE.HPP
D:\POLIBUDA\PROGRAMOWANIE\_GITLAB\KLOSLABSGAMINGCPPSFML\CPP-GAME-SFML2\LIBS\SFML\INCLUDE\SFML\GRAPHICS\IMAGE.HPP
D:\PROGRAMY\VISUAL2K15\VC\INCLUDE\MAP
D:\PROGRAMY\VISUAL2K15\VC\INCLUDE\TUPLE
D:\PROGRAMY\VISUAL2K15\VC\INCLUDE\XTREE
D:\POLIBUDA\PROGRAMOWANIE\_GITLAB\KLOSLABSGAMINGCPPSFML\CPP-GAME-SFML2\LIBS\SFML\INCLUDE\SFML\GRAPHICS\RECTANGLESHAPE.HPP
D:\POLIBUDA\PROGRAMOWANIE\_GITLAB\KLOSLABSGAMINGCPPSFML\CPP-GAME-SFML2\LIBS\SFML\INCLUDE\SFML\GRAPHICS\RENDERTARGET.HPP
D:\POLIBUDA\PROGRAMOWANIE\_GITLAB\KLOSLABSGAMINGCPPSFML\CPP-GAME-SFML2\LIBS\SFML\INCLUDE\SFML\GRAPHICS\VIEW.HPP
D:\POLIBUDA\PROGRAMOWANIE\_GITLAB\KLOSLABSGAMINGCPPSFML\CPP-GAME-SFML2\LIBS\SFML\INCLUDE\SFML\GRAPHICS\RENDERTEXTURE.HPP
D:\POLIBUDA\PROGRAMOWANIE\_GITLAB\KLOSLABSGAMINGCPPSFML\CPP-GAME-SFML2\LIBS\SFML\INCLUDE\SFML\GRAPHICS\RENDERWINDOW.HPP
D:\POLIBUDA\PROGRAMOWANIE\_GITLAB\KLOSLABSGAMINGCPPSFML\CPP-GAME-SFML2\LIBS\SFML\INCLUDE\SFML\GRAPHICS\SHADER.HPP
D:\POLIBUDA\PROGRAMOWANIE\_GITLAB\KLOSLABSGAMINGCPPSFML\CPP-GAME-SFML2\LIBS\SFML\INCLUDE\SFML\GRAPHICS\SPRITE.HPP
D:\POLIBUDA\PROGRAMOWANIE\_GITLAB\KLOSLABSGAMINGCPPSFML\CPP-GAME-SFML2\LIBS\SFML\INCLUDE\SFML\GRAPHICS\TEXT.HPP
D:\POLIBUDA\PROGRAMOWANIE\_GITLAB\KLOSLABSGAMINGCPPSFML\CPP-GAME-SFML2\LIBS\SFML\INCLUDE\SFML\AUDIO.HPP
D:\POLIBUDA\PROGRAMOWANIE\_GITLAB\KLOSLABSGAMINGCPPSFML\CPP-GAME-SFML2\LIBS\SFML\INCLUDE\SFML\AUDIO\INPUTSOUNDFILE.HPP
D:\POLIBUDA\PROGRAMOWANIE\_GITLAB\KLOSLABSGAMINGCPPSFML\CPP-GAME-SFML2\LIBS\SFML\INCLUDE\SFML\AUDIO\EXPORT.HPP
D:\POLIBUDA\PROGRAMOWANIE\_GITLAB\KLOSLABSGAMINGCPPSFML\CPP-GAME-SFML2\LIBS\SFML\INCLUDE\SFML\AUDIO\LISTENER.HPP
D:\POLIBUDA\PROGRAMOWANIE\_GITLAB\KLOSLABSGAMINGCPPSFML\CPP-GAME-SFML2\LIBS\SFML\INCLUDE\SFML\AUDIO\MUSIC.HPP
D:\POLIBUDA\PROGRAMOWANIE\_GITLAB\KLOSLABSGAMINGCPPSFML\CPP-GAME-SFML2\LIBS\SFML\INCLUDE\SFML\AUDIO\SOUNDSTREAM.HPP
D:\POLIBUDA\PROGRAMOWANIE\_GITLAB\KLOSLABSGAMINGCPPSFML\CPP-GAME-SFML2\LIBS\SFML\INCLUDE\SFML\AUDIO\SOUNDSOURCE.HPP
D:\POLIBUDA\PROGRAMOWANIE\_GITLAB\KLOSLABSGAMINGCPPSFML\CPP-GAME-SFML2\LIBS\SFML\INCLUDE\SFML\AUDIO\ALRESOURCE.HPP
D:\POLIBUDA\PROGRAMOWANIE\_GITLAB\KLOSLABSGAMINGCPPSFML\CPP-GAME-SFML2\LIBS\SFML\INCLUDE\SFML\AUDIO\OUTPUTSOUNDFILE.HPP
D:\POLIBUDA\PROGRAMOWANIE\_GITLAB\KLOSLABSGAMINGCPPSFML\CPP-GAME-SFML2\LIBS\SFML\INCLUDE\SFML\AUDIO\SOUND.HPP
D:\POLIBUDA\PROGRAMOWANIE\_GITLAB\KLOSLABSGAMINGCPPSFML\CPP-GAME-SFML2\LIBS\SFML\INCLUDE\SFML\AUDIO\SOUNDBUFFER.HPP
D:\PROGRAMY\VISUAL2K15\VC\INCLUDE\SET
D:\POLIBUDA\PROGRAMOWANIE\_GITLAB\KLOSLABSGAMINGCPPSFML\CPP-GAME-SFML2\LIBS\SFML\INCLUDE\SFML\AUDIO\SOUNDBUFFERRECORDER.HPP
D:\POLIBUDA\PROGRAMOWANIE\_GITLAB\KLOSLABSGAMINGCPPSFML\CPP-GAME-SFML2\LIBS\SFML\INCLUDE\SFML\AUDIO\SOUNDRECORDER.HPP
D:\POLIBUDA\PROGRAMOWANIE\_GITLAB\KLOSLABSGAMINGCPPSFML\CPP-GAME-SFML2\LIBS\SFML\INCLUDE\SFML\AUDIO\SOUNDFILEFACTORY.HPP
D:\POLIBUDA\PROGRAMOWANIE\_GITLAB\KLOSLABSGAMINGCPPSFML\CPP-GAME-SFML2\LIBS\SFML\INCLUDE\SFML\AUDIO\SOUNDFILEFACTORY.INL
D:\POLIBUDA\PROGRAMOWANIE\_GITLAB\KLOSLABSGAMINGCPPSFML\CPP-GAME-SFML2\LIBS\SFML\INCLUDE\SFML\AUDIO\SOUNDFILEREADER.HPP
D:\POLIBUDA\PROGRAMOWANIE\_GITLAB\KLOSLABSGAMINGCPPSFML\CPP-GAME-SFML2\LIBS\SFML\INCLUDE\SFML\AUDIO\SOUNDFILEWRITER.HPP
D:\POLIBUDA\PROGRAMOWANIE\_GITLAB\KLOSLABSGAMINGCPPSFML\CPP-GAME-SFML2\SFML TEST\CLASSESDECLARATIONS.H
D:\POLIBUDA\PROGRAMOWANIE\_GITLAB\KLOSLABSGAMINGCPPSFML\CPP-GAME-SFML2\SFML TEST\FUNCTIONS.H
D:\POLIBUDA\PROGRAMOWANIE\_GITLAB\KLOSLABSGAMINGCPPSFML\CPP-GAME-SFML2\SFML TEST\GAMESTAGE.H
D:\POLIBUDA\PROGRAMOWANIE\_GITLAB\KLOSLABSGAMINGCPPSFML\CPP-GAME-SFML2\SFML TEST\PLAYER.H
D:\POLIBUDA\PROGRAMOWANIE\_GITLAB\KLOSLABSGAMINGCPPSFML\CPP-GAME-SFML2\SFML TEST\ENEMY.H
D:\PROGRAMY\VISUAL2K15\VC\INCLUDE\RANDOM
