^D:\POLIBUDA\PROGRAMOWANIE\CPPPP\LAB2\KOLOCPP_MOJE\SFML TEST\INTERMEDIATE\X64\RELEASE\FUNCTIONS.OBJ|D:\POLIBUDA\PROGRAMOWANIE\CPPPP\LAB2\KOLOCPP_MOJE\SFML TEST\INTERMEDIATE\X64\RELEASE\GAMEPLAY.OBJ|D:\POLIBUDA\PROGRAMOWANIE\CPPPP\LAB2\KOLOCPP_MOJE\SFML TEST\INTERMEDIATE\X64\RELEASE\GAMESTAGE.OBJ|D:\POLIBUDA\PROGRAMOWANIE\CPPPP\LAB2\KOLOCPP_MOJE\SFML TEST\INTERMEDIATE\X64\RELEASE\MAIN.OBJ|D:\POLIBUDA\PROGRAMOWANIE\CPPPP\LAB2\KOLOCPP_MOJE\SFML TEST\INTERMEDIATE\X64\RELEASE\MENU.OBJ
C:\WINDOWS\GLOBALIZATION\SORTING\SORTDEFAULT.NLS
D:\POLIBUDA\PROGRAMOWANIE\CPPPP\LAB2\KOLOCPP_MOJE\SFML TEST\LIBS\SFML\LIB\FLAC.LIB
D:\POLIBUDA\PROGRAMOWANIE\CPPPP\LAB2\KOLOCPP_MOJE\SFML TEST\LIBS\SFML\LIB\FREETYPE.LIB
D:\POLIBUDA\PROGRAMOWANIE\CPPPP\LAB2\KOLOCPP_MOJE\SFML TEST\LIBS\SFML\LIB\JPEG.LIB
D:\POLIBUDA\PROGRAMOWANIE\CPPPP\LAB2\KOLOCPP_MOJE\SFML TEST\LIBS\SFML\LIB\OGG.LIB
D:\POLIBUDA\PROGRAMOWANIE\CPPPP\LAB2\KOLOCPP_MOJE\SFML TEST\LIBS\SFML\LIB\OPENAL32.LIB
D:\POLIBUDA\PROGRAMOWANIE\CPPPP\LAB2\KOLOCPP_MOJE\SFML TEST\LIBS\SFML\LIB\SFML-AUDIO.LIB
D:\POLIBUDA\PROGRAMOWANIE\CPPPP\LAB2\KOLOCPP_MOJE\SFML TEST\LIBS\SFML\LIB\SFML-GRAPHICS.LIB
D:\POLIBUDA\PROGRAMOWANIE\CPPPP\LAB2\KOLOCPP_MOJE\SFML TEST\LIBS\SFML\LIB\SFML-MAIN.LIB
D:\POLIBUDA\PROGRAMOWANIE\CPPPP\LAB2\KOLOCPP_MOJE\SFML TEST\LIBS\SFML\LIB\SFML-NETWORK.LIB
D:\POLIBUDA\PROGRAMOWANIE\CPPPP\LAB2\KOLOCPP_MOJE\SFML TEST\LIBS\SFML\LIB\SFML-SYSTEM.LIB
D:\POLIBUDA\PROGRAMOWANIE\CPPPP\LAB2\KOLOCPP_MOJE\SFML TEST\LIBS\SFML\LIB\SFML-WINDOW.LIB
D:\POLIBUDA\PROGRAMOWANIE\CPPPP\LAB2\KOLOCPP_MOJE\SFML TEST\LIBS\SFML\LIB\VORBIS.LIB
D:\POLIBUDA\PROGRAMOWANIE\CPPPP\LAB2\KOLOCPP_MOJE\SFML TEST\LIBS\SFML\LIB\VORBISENC.LIB
D:\POLIBUDA\PROGRAMOWANIE\CPPPP\LAB2\KOLOCPP_MOJE\SFML TEST\LIBS\SFML\LIB\VORBISFILE.LIB
C:\PROGRAM FILES (X86)\WINDOWS KITS\8.1\LIB\WINV6.3\UM\X64\KERNEL32.LIB
C:\PROGRAM FILES (X86)\WINDOWS KITS\8.1\LIB\WINV6.3\UM\X64\USER32.LIB
C:\PROGRAM FILES (X86)\WINDOWS KITS\8.1\LIB\WINV6.3\UM\X64\GDI32.LIB
C:\PROGRAM FILES (X86)\WINDOWS KITS\8.1\LIB\WINV6.3\UM\X64\WINSPOOL.LIB
C:\PROGRAM FILES (X86)\WINDOWS KITS\8.1\LIB\WINV6.3\UM\X64\COMDLG32.LIB
C:\PROGRAM FILES (X86)\WINDOWS KITS\8.1\LIB\WINV6.3\UM\X64\ADVAPI32.LIB
C:\PROGRAM FILES (X86)\WINDOWS KITS\8.1\LIB\WINV6.3\UM\X64\SHELL32.LIB
C:\PROGRAM FILES (X86)\WINDOWS KITS\8.1\LIB\WINV6.3\UM\X64\OLE32.LIB
C:\PROGRAM FILES (X86)\WINDOWS KITS\8.1\LIB\WINV6.3\UM\X64\OLEAUT32.LIB
C:\PROGRAM FILES (X86)\WINDOWS KITS\8.1\LIB\WINV6.3\UM\X64\UUID.LIB
C:\PROGRAM FILES (X86)\WINDOWS KITS\8.1\LIB\WINV6.3\UM\X64\ODBC32.LIB
C:\PROGRAM FILES (X86)\WINDOWS KITS\8.1\LIB\WINV6.3\UM\X64\ODBCCP32.LIB
D:\POLIBUDA\PROGRAMOWANIE\CPPPP\LAB2\KOLOCPP_MOJE\SFML TEST\INTERMEDIATE\X64\RELEASE\FUNCTIONS.OBJ
D:\POLIBUDA\PROGRAMOWANIE\CPPPP\LAB2\KOLOCPP_MOJE\SFML TEST\INTERMEDIATE\X64\RELEASE\GAMEPLAY.OBJ
D:\POLIBUDA\PROGRAMOWANIE\CPPPP\LAB2\KOLOCPP_MOJE\SFML TEST\INTERMEDIATE\X64\RELEASE\GAMESTAGE.OBJ
D:\POLIBUDA\PROGRAMOWANIE\CPPPP\LAB2\KOLOCPP_MOJE\SFML TEST\INTERMEDIATE\X64\RELEASE\MAIN.OBJ
D:\POLIBUDA\PROGRAMOWANIE\CPPPP\LAB2\KOLOCPP_MOJE\SFML TEST\INTERMEDIATE\X64\RELEASE\MENU.OBJ
D:\PROGRAMY\VISUAL2K15\VC\BIN\X86_AMD64\C2.DLL
D:\PROGRAMY\VISUAL2K15\VC\LIB\AMD64\MSVCPRT.LIB
D:\PROGRAMY\VISUAL2K15\VC\LIB\AMD64\MSVCRT.LIB
D:\PROGRAMY\VISUAL2K15\VC\LIB\AMD64\OLDNAMES.LIB
D:\PROGRAMY\VISUAL2K15\VC\LIB\AMD64\VCRUNTIME.LIB
C:\PROGRAM FILES (X86)\WINDOWS KITS\10\LIB\10.0.10240.0\UCRT\X64\UCRT.LIB
D:\PROGRAMY\VISUAL2K15\VC\BIN\X86_AMD64\1033\LINKUI.DLL
D:\POLIBUDA\PROGRAMOWANIE\CPPPP\LAB2\KOLOCPP_MOJE\SFML TEST\OUT\X64\RELEASE\SFML TEST.IPDB
D:\POLIBUDA\PROGRAMOWANIE\CPPPP\LAB2\KOLOCPP_MOJE\SFML TEST\OUT\X64\RELEASE\SFML TEST.IOBJ
C:\PROGRAM FILES (X86)\WINDOWS KITS\8.1\BIN\X86\RC.EXE
D:\PROGRAMY\VISUAL2K15\VC\BIN\CVTRES.EXE
C:\WINDOWS\SYSTEM32\TZRES.DLL
C:\WINDOWS\SYSTEM32\RSAENH.DLL
^D:\POLIBUDA\PROGRAMOWANIE\CPPPP\KLOSLABSGAMING\SFML TEST\INTERMEDIATE\X64\RELEASE\FUNCTIONS.OBJ|D:\POLIBUDA\PROGRAMOWANIE\CPPPP\KLOSLABSGAMING\SFML TEST\INTERMEDIATE\X64\RELEASE\GAMEPLAY.OBJ|D:\POLIBUDA\PROGRAMOWANIE\CPPPP\KLOSLABSGAMING\SFML TEST\INTERMEDIATE\X64\RELEASE\GAMESTAGE.OBJ|D:\POLIBUDA\PROGRAMOWANIE\CPPPP\KLOSLABSGAMING\SFML TEST\INTERMEDIATE\X64\RELEASE\MAIN.OBJ|D:\POLIBUDA\PROGRAMOWANIE\CPPPP\KLOSLABSGAMING\SFML TEST\INTERMEDIATE\X64\RELEASE\MENU.OBJ
C:\WINDOWS\GLOBALIZATION\SORTING\SORTDEFAULT.NLS
D:\POLIBUDA\PROGRAMOWANIE\CPPPP\KLOSLABSGAMING\SFML TEST\LIBS\SFML\LIB\FLAC.LIB
D:\POLIBUDA\PROGRAMOWANIE\CPPPP\KLOSLABSGAMING\SFML TEST\LIBS\SFML\LIB\FREETYPE.LIB
D:\POLIBUDA\PROGRAMOWANIE\CPPPP\KLOSLABSGAMING\SFML TEST\LIBS\SFML\LIB\JPEG.LIB
D:\POLIBUDA\PROGRAMOWANIE\CPPPP\KLOSLABSGAMING\SFML TEST\LIBS\SFML\LIB\OGG.LIB
D:\POLIBUDA\PROGRAMOWANIE\CPPPP\KLOSLABSGAMING\SFML TEST\LIBS\SFML\LIB\OPENAL32.LIB
D:\POLIBUDA\PROGRAMOWANIE\CPPPP\KLOSLABSGAMING\SFML TEST\LIBS\SFML\LIB\SFML-AUDIO.LIB
D:\POLIBUDA\PROGRAMOWANIE\CPPPP\KLOSLABSGAMING\SFML TEST\LIBS\SFML\LIB\SFML-GRAPHICS.LIB
D:\POLIBUDA\PROGRAMOWANIE\CPPPP\KLOSLABSGAMING\SFML TEST\LIBS\SFML\LIB\SFML-MAIN.LIB
D:\POLIBUDA\PROGRAMOWANIE\CPPPP\KLOSLABSGAMING\SFML TEST\LIBS\SFML\LIB\SFML-NETWORK.LIB
D:\POLIBUDA\PROGRAMOWANIE\CPPPP\KLOSLABSGAMING\SFML TEST\LIBS\SFML\LIB\SFML-SYSTEM.LIB
D:\POLIBUDA\PROGRAMOWANIE\CPPPP\KLOSLABSGAMING\SFML TEST\LIBS\SFML\LIB\SFML-WINDOW.LIB
D:\POLIBUDA\PROGRAMOWANIE\CPPPP\KLOSLABSGAMING\SFML TEST\LIBS\SFML\LIB\VORBIS.LIB
D:\POLIBUDA\PROGRAMOWANIE\CPPPP\KLOSLABSGAMING\SFML TEST\LIBS\SFML\LIB\VORBISENC.LIB
D:\POLIBUDA\PROGRAMOWANIE\CPPPP\KLOSLABSGAMING\SFML TEST\LIBS\SFML\LIB\VORBISFILE.LIB
C:\PROGRAM FILES (X86)\WINDOWS KITS\8.1\LIB\WINV6.3\UM\X64\KERNEL32.LIB
C:\PROGRAM FILES (X86)\WINDOWS KITS\8.1\LIB\WINV6.3\UM\X64\USER32.LIB
C:\PROGRAM FILES (X86)\WINDOWS KITS\8.1\LIB\WINV6.3\UM\X64\GDI32.LIB
C:\PROGRAM FILES (X86)\WINDOWS KITS\8.1\LIB\WINV6.3\UM\X64\WINSPOOL.LIB
C:\PROGRAM FILES (X86)\WINDOWS KITS\8.1\LIB\WINV6.3\UM\X64\COMDLG32.LIB
C:\PROGRAM FILES (X86)\WINDOWS KITS\8.1\LIB\WINV6.3\UM\X64\ADVAPI32.LIB
C:\PROGRAM FILES (X86)\WINDOWS KITS\8.1\LIB\WINV6.3\UM\X64\SHELL32.LIB
C:\PROGRAM FILES (X86)\WINDOWS KITS\8.1\LIB\WINV6.3\UM\X64\OLE32.LIB
C:\PROGRAM FILES (X86)\WINDOWS KITS\8.1\LIB\WINV6.3\UM\X64\OLEAUT32.LIB
C:\PROGRAM FILES (X86)\WINDOWS KITS\8.1\LIB\WINV6.3\UM\X64\UUID.LIB
C:\PROGRAM FILES (X86)\WINDOWS KITS\8.1\LIB\WINV6.3\UM\X64\ODBC32.LIB
C:\PROGRAM FILES (X86)\WINDOWS KITS\8.1\LIB\WINV6.3\UM\X64\ODBCCP32.LIB
D:\POLIBUDA\PROGRAMOWANIE\CPPPP\KLOSLABSGAMING\SFML TEST\INTERMEDIATE\X64\RELEASE\FUNCTIONS.OBJ
D:\POLIBUDA\PROGRAMOWANIE\CPPPP\KLOSLABSGAMING\SFML TEST\INTERMEDIATE\X64\RELEASE\GAMEPLAY.OBJ
D:\POLIBUDA\PROGRAMOWANIE\CPPPP\KLOSLABSGAMING\SFML TEST\INTERMEDIATE\X64\RELEASE\GAMESTAGE.OBJ
D:\POLIBUDA\PROGRAMOWANIE\CPPPP\KLOSLABSGAMING\SFML TEST\INTERMEDIATE\X64\RELEASE\MAIN.OBJ
D:\POLIBUDA\PROGRAMOWANIE\CPPPP\KLOSLABSGAMING\SFML TEST\INTERMEDIATE\X64\RELEASE\MENU.OBJ
D:\PROGRAMY\VISUAL2K15\VC\BIN\X86_AMD64\C2.DLL
D:\PROGRAMY\VISUAL2K15\VC\LIB\AMD64\MSVCPRT.LIB
D:\PROGRAMY\VISUAL2K15\VC\LIB\AMD64\MSVCRT.LIB
D:\PROGRAMY\VISUAL2K15\VC\LIB\AMD64\OLDNAMES.LIB
D:\PROGRAMY\VISUAL2K15\VC\LIB\AMD64\VCRUNTIME.LIB
C:\PROGRAM FILES (X86)\WINDOWS KITS\10\LIB\10.0.10240.0\UCRT\X64\UCRT.LIB
D:\PROGRAMY\VISUAL2K15\VC\BIN\X86_AMD64\1033\LINKUI.DLL
D:\POLIBUDA\PROGRAMOWANIE\CPPPP\KLOSLABSGAMING\SFML TEST\OUT\X64\RELEASE\SFML TEST.IPDB
D:\POLIBUDA\PROGRAMOWANIE\CPPPP\KLOSLABSGAMING\SFML TEST\OUT\X64\RELEASE\SFML TEST.IOBJ
C:\PROGRAM FILES (X86)\WINDOWS KITS\8.1\BIN\X86\RC.EXE
D:\PROGRAMY\VISUAL2K15\VC\BIN\CVTRES.EXE
D:\PROGRAMY\VISUAL2K15\VC\BIN\MSPDBSRV.EXE
C:\WINDOWS\SYSTEM32\TZRES.DLL
C:\WINDOWS\SYSTEM32\RSAENH.DLL
^D:\POLIBUDA\PROGRAMOWANIE\_GITLAB\KLOSLABSGAMINGCPPSFML\CPP-GAME-SFML2\INTERMEDIATE\X64\RELEASE\FUNCTIONS.OBJ|D:\POLIBUDA\PROGRAMOWANIE\_GITLAB\KLOSLABSGAMINGCPPSFML\CPP-GAME-SFML2\INTERMEDIATE\X64\RELEASE\GAMEPLAY.OBJ|D:\POLIBUDA\PROGRAMOWANIE\_GITLAB\KLOSLABSGAMINGCPPSFML\CPP-GAME-SFML2\INTERMEDIATE\X64\RELEASE\GAMESTAGE.OBJ|D:\POLIBUDA\PROGRAMOWANIE\_GITLAB\KLOSLABSGAMINGCPPSFML\CPP-GAME-SFML2\INTERMEDIATE\X64\RELEASE\MAIN.OBJ|D:\POLIBUDA\PROGRAMOWANIE\_GITLAB\KLOSLABSGAMINGCPPSFML\CPP-GAME-SFML2\INTERMEDIATE\X64\RELEASE\MENU.OBJ
C:\WINDOWS\GLOBALIZATION\SORTING\SORTDEFAULT.NLS
C:\WINDOWS\SYSTEM32\C_1252.NLS
D:\POLIBUDA\PROGRAMOWANIE\_GITLAB\KLOSLABSGAMINGCPPSFML\CPP-GAME-SFML2\LIBS\SFML\LIB\FLAC.LIB
D:\POLIBUDA\PROGRAMOWANIE\_GITLAB\KLOSLABSGAMINGCPPSFML\CPP-GAME-SFML2\LIBS\SFML\LIB\FREETYPE.LIB
D:\POLIBUDA\PROGRAMOWANIE\_GITLAB\KLOSLABSGAMINGCPPSFML\CPP-GAME-SFML2\LIBS\SFML\LIB\JPEG.LIB
D:\POLIBUDA\PROGRAMOWANIE\_GITLAB\KLOSLABSGAMINGCPPSFML\CPP-GAME-SFML2\LIBS\SFML\LIB\OGG.LIB
D:\POLIBUDA\PROGRAMOWANIE\_GITLAB\KLOSLABSGAMINGCPPSFML\CPP-GAME-SFML2\LIBS\SFML\LIB\OPENAL32.LIB
D:\POLIBUDA\PROGRAMOWANIE\_GITLAB\KLOSLABSGAMINGCPPSFML\CPP-GAME-SFML2\LIBS\SFML\LIB\SFML-AUDIO.LIB
D:\POLIBUDA\PROGRAMOWANIE\_GITLAB\KLOSLABSGAMINGCPPSFML\CPP-GAME-SFML2\LIBS\SFML\LIB\SFML-GRAPHICS.LIB
D:\POLIBUDA\PROGRAMOWANIE\_GITLAB\KLOSLABSGAMINGCPPSFML\CPP-GAME-SFML2\LIBS\SFML\LIB\SFML-MAIN.LIB
D:\POLIBUDA\PROGRAMOWANIE\_GITLAB\KLOSLABSGAMINGCPPSFML\CPP-GAME-SFML2\LIBS\SFML\LIB\SFML-NETWORK.LIB
D:\POLIBUDA\PROGRAMOWANIE\_GITLAB\KLOSLABSGAMINGCPPSFML\CPP-GAME-SFML2\LIBS\SFML\LIB\SFML-SYSTEM.LIB
D:\POLIBUDA\PROGRAMOWANIE\_GITLAB\KLOSLABSGAMINGCPPSFML\CPP-GAME-SFML2\LIBS\SFML\LIB\SFML-WINDOW.LIB
D:\POLIBUDA\PROGRAMOWANIE\_GITLAB\KLOSLABSGAMINGCPPSFML\CPP-GAME-SFML2\LIBS\SFML\LIB\VORBIS.LIB
D:\POLIBUDA\PROGRAMOWANIE\_GITLAB\KLOSLABSGAMINGCPPSFML\CPP-GAME-SFML2\LIBS\SFML\LIB\VORBISENC.LIB
D:\POLIBUDA\PROGRAMOWANIE\_GITLAB\KLOSLABSGAMINGCPPSFML\CPP-GAME-SFML2\LIBS\SFML\LIB\VORBISFILE.LIB
C:\PROGRAM FILES (X86)\WINDOWS KITS\8.1\LIB\WINV6.3\UM\X64\KERNEL32.LIB
C:\PROGRAM FILES (X86)\WINDOWS KITS\8.1\LIB\WINV6.3\UM\X64\USER32.LIB
C:\PROGRAM FILES (X86)\WINDOWS KITS\8.1\LIB\WINV6.3\UM\X64\GDI32.LIB
C:\PROGRAM FILES (X86)\WINDOWS KITS\8.1\LIB\WINV6.3\UM\X64\WINSPOOL.LIB
C:\PROGRAM FILES (X86)\WINDOWS KITS\8.1\LIB\WINV6.3\UM\X64\COMDLG32.LIB
C:\PROGRAM FILES (X86)\WINDOWS KITS\8.1\LIB\WINV6.3\UM\X64\ADVAPI32.LIB
C:\PROGRAM FILES (X86)\WINDOWS KITS\8.1\LIB\WINV6.3\UM\X64\SHELL32.LIB
C:\PROGRAM FILES (X86)\WINDOWS KITS\8.1\LIB\WINV6.3\UM\X64\OLE32.LIB
C:\PROGRAM FILES (X86)\WINDOWS KITS\8.1\LIB\WINV6.3\UM\X64\OLEAUT32.LIB
C:\PROGRAM FILES (X86)\WINDOWS KITS\8.1\LIB\WINV6.3\UM\X64\UUID.LIB
C:\PROGRAM FILES (X86)\WINDOWS KITS\8.1\LIB\WINV6.3\UM\X64\ODBC32.LIB
C:\PROGRAM FILES (X86)\WINDOWS KITS\8.1\LIB\WINV6.3\UM\X64\ODBCCP32.LIB
D:\POLIBUDA\PROGRAMOWANIE\_GITLAB\KLOSLABSGAMINGCPPSFML\CPP-GAME-SFML2\INTERMEDIATE\X64\RELEASE\FUNCTIONS.OBJ
D:\POLIBUDA\PROGRAMOWANIE\_GITLAB\KLOSLABSGAMINGCPPSFML\CPP-GAME-SFML2\INTERMEDIATE\X64\RELEASE\GAMEPLAY.OBJ
D:\POLIBUDA\PROGRAMOWANIE\_GITLAB\KLOSLABSGAMINGCPPSFML\CPP-GAME-SFML2\INTERMEDIATE\X64\RELEASE\GAMESTAGE.OBJ
D:\POLIBUDA\PROGRAMOWANIE\_GITLAB\KLOSLABSGAMINGCPPSFML\CPP-GAME-SFML2\INTERMEDIATE\X64\RELEASE\MAIN.OBJ
D:\POLIBUDA\PROGRAMOWANIE\_GITLAB\KLOSLABSGAMINGCPPSFML\CPP-GAME-SFML2\INTERMEDIATE\X64\RELEASE\MENU.OBJ
D:\PROGRAMY\VISUAL2K15\VC\BIN\X86_AMD64\C2.DLL
D:\PROGRAMY\VISUAL2K15\VC\LIB\AMD64\MSVCPRT.LIB
D:\PROGRAMY\VISUAL2K15\VC\LIB\AMD64\MSVCRT.LIB
D:\PROGRAMY\VISUAL2K15\VC\LIB\AMD64\OLDNAMES.LIB
D:\PROGRAMY\VISUAL2K15\VC\LIB\AMD64\VCRUNTIME.LIB
C:\PROGRAM FILES (X86)\WINDOWS KITS\10\LIB\10.0.10240.0\UCRT\X64\UCRT.LIB
D:\PROGRAMY\VISUAL2K15\VC\BIN\X86_AMD64\1033\LINKUI.DLL
D:\POLIBUDA\PROGRAMOWANIE\_GITLAB\KLOSLABSGAMINGCPPSFML\CPP-GAME-SFML2\OUT\X64\RELEASE\SFML TEST.IPDB
D:\POLIBUDA\PROGRAMOWANIE\_GITLAB\KLOSLABSGAMINGCPPSFML\CPP-GAME-SFML2\OUT\X64\RELEASE\SFML TEST.IOBJ
C:\PROGRAM FILES (X86)\WINDOWS KITS\8.1\BIN\X86\RC.EXE
D:\PROGRAMY\VISUAL2K15\VC\BIN\CVTRES.EXE
C:\WINDOWS\SYSTEM32\TZRES.DLL
C:\WINDOWS\SYSTEM32\RSAENH.DLL
